Nom;Adresse;Commune;CP;concat;catégorie d'activité
IMAGERIE NOUVELLE DE LA HAUTE CORSE;centre CLINIQUE MAYMARD;Bastia;20200;centre CLINIQUE MAYMARD Bastia 20200;Médecins, radiologie, radiodiagnostic et imagerie médicale
IMAGERIE MÉDICALE MEZZAVIA (SCP);Acqualonga;Ajaccio;20000;Acqualonga Ajaccio 20000;Médecins, radiologie, radiodiagnostic et imagerie médicale
IMAGERIE MÉDICALE DE BALAGNE;route Territoriale 30;Ile rousse;20220;route Territoriale 30 Ile rousse 20220;Médecins, radiologie, radiodiagnostic et imagerie médicale
IMAGERIE MÉDICALE DE BALAGNE (SCM);route de Calvi;Ile rousse;20220;route de Calvi Ile rousse 20220;Médecins, radiologie, radiodiagnostic et imagerie médicale
IMAGERIE MÉDICALE DE LA MADONUCCIA;12 avenue Napoléon III;Ajaccio;20000;12 avenue Napoléon III Ajaccio 20000;
IMAGERIE MÉDICALE BORGO MAYMARD;215 avenue de Borgo;Borgo;20290;215 avenue de Borgo Borgo 20290;Médecins, radiologie, radiodiagnostic et imagerie médicale
CENTRE D'IMAGERIE MÉDICALE DE LA MADONUCCIA (MOZZICONACCI MARI PÉDULLA ET ASSOCIÉS);avenue du Dr Noël Franchini;Ajaccio;20090;avenue du Dr Noël Franchini Ajaccio 20090;Médecins, radiologie, radiodiagnostic et imagerie médicale
FLORI ALEXANDRE;Acqualonga;Ajaccio;20000;Acqualonga Ajaccio 20000;Médecins, radiologie, radiodiagnostic et imagerie médicale
GROUPE IMAGERIE MÉDICALE;4 rue de l'Impératrice Eugénie;Bastia;20200;4 rue de l'Impératrice Eugénie Bastia 20200;Médecins, radiologie, radiodiagnostic et imagerie médicale
GROUPE IMAGERIE MÉDICALE DU CENTRE;4 cours Pierangeli;Bastia;20200;4 cours Pierangeli Bastia 20200;Médecins, radiologie, radiodiagnostic et imagerie médicale
HOULLIER SERGE;Acqualonga;Ajaccio;20000;Acqualonga Ajaccio 20000;Médecins, radiologie, radiodiagnostic et imagerie médicale
APPIETTO ET FLORI (SCP);22 boulevard Dominique Paoli;Ajaccio;20090;22 boulevard Dominique Paoli Ajaccio 20090;Médecins, radiologie, radiodiagnostic et imagerie médicale
CABINET RADIOLOGIE ANGIOLOGIE DU GOLFE;28 boulevard Pascal Rossini;Ajaccio;20000;28 boulevard Pascal Rossini Ajaccio 20000;Médecins, radiologie, radiodiagnostic et imagerie médicale
CABINET RADIOLOGIQUE ARRIGHI-ANGELI-GODARD;rue Marcel Paul;Bastia;20200;rue Marcel Paul Bastia 20200;Médecins, radiologie, radiodiagnostic et imagerie médicale
CABINET RADIOLOGIQUE LE VINCI (DRS CRISTIANI JEAN - VALÉRY JEAN);residence le Vinci Lupino;Bastia;20600;residence le Vinci Lupino Bastia 20600;Médecins, radiologie, radiodiagnostic et imagerie médicale
CARLOTTI XAVIER;rue Marcel Paul;Bastia;20200;rue Marcel Paul Bastia 20200;Médecins, radiologie, radiodiagnostic et imagerie médicale
SOCIÉTÉ DE RADIOLOGIE LES ALBIZZIAS;residence Corail;Prunelli di fiumorbo;20243;residence Corail Prunelli di fiumorbo 20243;Médecins, radiologie, radiodiagnostic et imagerie médicale
ANGELI FRANÇOISE;centre commercial Sainte Devote;Borgo;20290;centre commercial Sainte Devote Borgo 20290;Médecins, radiologie, radiodiagnostic et imagerie médicale
CARLOTTI XAVIER;centre commercial Sainte Devote;Borgo;20290;centre commercial Sainte Devote Borgo 20290;Médecins, radiologie, radiodiagnostic et imagerie médicale
GÉRARD GINETTE;Santa Giulia;Propriano;20110;Santa Giulia Propriano 20110;Médecins, radiologie, radiodiagnostic et imagerie médicale
RADIOLOGIE ET IMAGERIE MÉDICALE ALBIZZIA;chemin de Georgeville;Porto vecchio;20137;chemin de Georgeville Porto vecchio 20137;Médecins, radiologie, radiodiagnostic et imagerie médicale
GROUP IMAGERIE MÉDICALE;village de Furiani;Furiani;20600;village de Furiani Furiani 20600;
IMAGERIE MÉDICALE CORSE (SCM);12 avenue Napoléon III;Ajaccio;20000;12 avenue Napoléon III Ajaccio 20000;Médecins, radiologie, radiodiagnostic et imagerie médicale
