Nom;Adresse;Commune;CP;concat;catégorie d'activité
NOTARI MONNERIE PAUGAM MARTIN NOTARI-LEFEVRE NOEL;41 Quai De Juillet;Caen;14000;41 Quai De Juillet Caen 14000;Médecins, radiologie, radiodiagnostic et imagerie médicale
RECHER SANDRINE;32 rue Lazare Carnot;Saint etienne du rouvray;76800;32 rue Lazare Carnot Saint etienne du rouvray 76800;Médecins, radiologie, radiodiagnostic et imagerie médicale
RECHER SANDRINE;92 rue Jeanne d'Arc;Rouen;76000;92 rue Jeanne d'Arc Rouen 76000;Médecins, radiologie, radiodiagnostic et imagerie médicale
ROGLER MICHEL;41 rue Jean Lecanuet;Rouen;76000;41 rue Jean Lecanuet Rouen 76000;Médecins, radiologie, radiodiagnostic et imagerie médicale
ROLLET GILLES;31 bis rue St-Quentin;Bayeux;14400;31 bis rue St-Quentin Bayeux 14400;Médecins, radiologie, radiodiagnostic et imagerie médicale
ROLLET GILLES;45 rue Holgate;Carentan;50500;45 rue Holgate Carentan 50500;Médecins, radiologie, radiodiagnostic et imagerie médicale
ROLLOY PIERRE;1 rue du Dr Louis Bergouignan;Evreux;27000;1 rue du Dr Louis Bergouignan Evreux 27000;Médecins, radiologie, radiodiagnostic et imagerie médicale
SAMAIN JEAN-PIERRE;41 rue Jean Lecanuet;Rouen;76000;41 rue Jean Lecanuet Rouen 76000;Médecins, radiologie, radiodiagnostic et imagerie médicale
SAOUD MOHAMED;58 quai Vendeuvre;Caen;14000;58 quai Vendeuvre Caen 14000;Médecins, radiologie, radiodiagnostic et imagerie médicale
SCANNER DE MESNIL-ESNARD;9 rue d'Anjou;Le mesnil esnard;76240;9 rue d'Anjou Le mesnil esnard 76240;Médecins, radiologie, radiodiagnostic et imagerie médicale
SCANNER DU BESSIN (GIE);13 rue de Nesmond;Bayeux;14400;13 rue de Nesmond Bayeux 14400;Médecins, radiologie, radiodiagnostic et imagerie médicale
SCANNER IRM DU BOCAGE;99 rue de Messei;Flers;61100;99 rue de Messei Flers 61100;Médecins, radiologie, radiodiagnostic et imagerie médicale
SCANNER IRM DU BOCAGE;109 rue de Messei;Flers;61100;109 rue de Messei Flers 61100;Médecins, radiologie, radiodiagnostic et imagerie médicale
SCANNER PÔLE SANTÉ CÔTE FLEURIE;route departementale 62;Cricqueboeuf;14113;route departementale 62 Cricqueboeuf 14113;Médecins, radiologie, radiodiagnostic et imagerie médicale
SCANNER SAINT MARTIN;18 rue des Roquemonts;Caen;14000;18 rue des Roquemonts Caen 14000;Médecins, radiologie, radiodiagnostic et imagerie médicale
SCHROTER-VIDIL KARIN;32 rue Lazare Carnot;Saint etienne du rouvray;76800;32 rue Lazare Carnot Saint etienne du rouvray 76800;Médecins, radiologie, radiodiagnostic et imagerie médicale
SCM (DR B. CHALLINE);18 rue des Roquemonts;Caen;14000;18 rue des Roquemonts Caen 14000;Médecins, radiologie, radiodiagnostic et imagerie médicale
SCM (DR B. MARIOTTE);18 rue des Roquemonts;Caen;14000;18 rue des Roquemonts Caen 14000;Médecins, radiologie, radiodiagnostic et imagerie médicale
SCM (DR G. PIEL);18 rue des Roquemonts;Caen;14000;18 rue des Roquemonts Caen 14000;Médecins, radiologie, radiodiagnostic et imagerie médicale
SCM CENTRE RADIOLOGIQUE BRESLE (SCM);68 boulevard Victor Hugo Residence Du Vert Bocage;;;68 boulevard Victor Hugo Residence Du Vert Bocage  ;Médecins, radiologie, radiodiagnostic et imagerie médicale
SCM IRM LE HAVRE CENTRE;19 rue Franklin;Le havre;76600;19 rue Franklin Le havre 76600;Médecins, radiologie, radiodiagnostic et imagerie médicale
SOCIÉTÉ LOVERIENNE DE RADIOLOGIE;8 boulevard Georges Clémenceau;Louviers;27400;8 boulevard Georges Clémenceau Louviers 27400;Médecins, radiologie, radiodiagnostic et imagerie médicale
TALBIOUI ABDELAAZIZ;321 rue Alexis de Tocqueville;Saint lô;50000;321 rue Alexis de Tocqueville Saint lô 50000;Médecins, radiologie, radiodiagnostic et imagerie médicale
VANNIER JEAN-LUC;32 rue Lazare Carnot;Saint etienne du rouvray;76800;32 rue Lazare Carnot Saint etienne du rouvray 76800;Médecins, radiologie, radiodiagnostic et imagerie médicale
VERDIER JEAN-PIERRE;rue Léon Schwartzenberg;Evreux;27000;rue Léon Schwartzenberg Evreux 27000;Médecins, radiologie, radiodiagnostic et imagerie médicale
ZAHAF FOUZI;92 rue Jeanne d'Arc;Rouen;76000;92 rue Jeanne d'Arc Rouen 76000;Médecins, radiologie, radiodiagnostic et imagerie médicale
CABINET RADIO ECHO DRS CAQUEL ET BE;25 impasse d'Hellieule;Saint dié des vosges;88100;25 impasse d'Hellieule Saint dié des vosges 88100;Médecins, radiologie, radiodiagnostic et imagerie médicale
ALACHKAR FADI (CHP ST MARTIN);18 rue des Roquemonts;Caen;14000;18 rue des Roquemonts Caen 14000;Médecins, radiologie, radiodiagnostic et imagerie médicale
APIOU RAPHAEL;1717 place de Verdun;L'aigle;61300;1717 place de Verdun L'aigle 61300;Médecins, radiologie, radiodiagnostic et imagerie médicale
ASSOCIATION TRIDÉPISTAGE DES CANCERS DE LA MANCHE (ASSOCIATION);70 rue du Buot;Saint lô;50000;70 rue du Buot Saint lô 50000;Médecins, radiologie, radiodiagnostic et imagerie médicale
BERTOT GILLES;123 avenue Jean Jaurès;Le petit quevilly;76140;123 avenue Jean Jaurès Le petit quevilly 76140;Médecins, radiologie, radiodiagnostic et imagerie médicale
BLONDEL-MEUNIER CAROLINE;32 rue Lazare Carnot;Saint etienne du rouvray;76800;32 rue Lazare Carnot Saint etienne du rouvray 76800;Médecins, radiologie, radiodiagnostic et imagerie médicale
BOITTIN IZABEL JOLIVET GERBÉ DAVY;31 B rue St-Quentin;Bayeux;14400;31 B rue St-Quentin Bayeux 14400;Médecins, radiologie, radiodiagnostic et imagerie médicale
BRENDEL JOEL-ANDRÉ;4 rue Pasteur;Lillebonne;76170;4 rue Pasteur Lillebonne 76170;Médecins, radiologie, radiodiagnostic et imagerie médicale
CABINET D'ECHOGRAPHIE ET DE MAMMOGRAPHIE;41 rue Jean Lecanuet;Rouen;76000;41 rue Jean Lecanuet Rouen 76000;Médecins, radiologie, radiodiagnostic et imagerie médicale
CABINET D'ECHOGRAPHIE ET DE RADIOLOGIE DES DOCTEURS NOTARI MONNERIE PAUGAM ET MARTIN;39 quai de Juillet;Caen;14000;39 quai de Juillet Caen 14000;Médecins, radiologie, radiodiagnostic et imagerie médicale
CABINET DE MAMMOGRAPHIE ET OSTÉODENSITOMÉTRIE;57 rue Isidore Maillé;Saint aubin lès elbeuf;76410;57 rue Isidore Maillé Saint aubin lès elbeuf 76410;Médecins, radiologie, radiodiagnostic et imagerie médicale
CABINET DE RADIOLOGIE;52 rue de la Bucaille;Cherbourg en cotentin;50100;52 rue de la Bucaille Cherbourg en cotentin 50100;Médecins, radiologie, radiodiagnostic et imagerie médicale
CABINET DE RADIOLOGIE (MOUTON PHILIPPE ET GAUTHIER THIERRY);Creative Place;Deauville;14800;Creative Place Deauville 14800;Médecins, radiologie, radiodiagnostic et imagerie médicale
CABINET DE RADIOLOGIE CAUX ALBATRE;30 rue Jules Ferry;Fécamp;76400;30 rue Jules Ferry Fécamp 76400;Médecins, radiologie, radiodiagnostic et imagerie médicale
CABINET DE RADIOLOGIE DES DOCTEURS BREITSCHMITT LATOUCHE ET DUBOT;61 avenue des Canadiens;Sotteville lès rouen;76300;61 avenue des Canadiens Sotteville lès rouen 76300;Médecins, radiologie, radiodiagnostic et imagerie médicale
CABINET DE RADIOLOGIE DES DOCTEURS BREITSCHMITT LATOUCHE ET DUBOT;36 place Eugène Delacroix;Le grand quevilly;76120;36 place Eugène Delacroix Le grand quevilly 76120;Médecins, radiologie, radiodiagnostic et imagerie médicale
CABINET DE RADIOLOGIE DES ORMEAUX;63 rue Denfert-Rochereau;Le havre;76600;63 rue Denfert-Rochereau Le havre 76600;Médecins, radiologie, radiodiagnostic et imagerie médicale
CABINET DE RADIOLOGIE ECHOGRAPHIE ET MAMMOGRAPHIE;32 rue Lazare Carnot;Saint etienne du rouvray;76800;32 rue Lazare Carnot Saint etienne du rouvray 76800;Médecins, radiologie, radiodiagnostic et imagerie médicale
CABINET DE RADIOLOGIE ECHOGRAPHIE ET MAMMOGRAPHIE;92 rue Jeanne d'Arc;Rouen;76000;92 rue Jeanne d'Arc Rouen 76000;Médecins, radiologie, radiodiagnostic et imagerie médicale
CABINET DE RADIOLOGIE ET D'ECHOGRAPHIE DE MONT SAINT AIGNAN (SAMAIN J.PIERRE-BRANDICOURT PIERRE-BOYER JEAN CHRISTOPHE);98 rue Louis Pasteur;Mont saint aignan;76130;98 rue Louis Pasteur Mont saint aignan 76130;Médecins, radiologie, radiodiagnostic et imagerie médicale
CABINET DE RADIOLOGIE ET D'ECHOGRAPHIE DE MONT SAINT AIGNAN SAMAIN J.PIERRE-BRANDICOURT PIERRE - BOYER JEAN CHRISTOPHEC;98 rue Louis Pasteur;Mont saint aignan;76130;98 rue Louis Pasteur Mont saint aignan 76130;Médecins, radiologie, radiodiagnostic et imagerie médicale
CABINET DE RADIOLOGIE FRANÇOIS TRUFFAUT;123 avenue Jean Jaurès;Le petit quevilly;76140;123 avenue Jean Jaurès Le petit quevilly 76140;Médecins, radiologie, radiodiagnostic et imagerie médicale
CABINET DE RADIOLOGIE GRINGORE;36 rue Nicolas Oresme;Caen;14000;36 rue Nicolas Oresme Caen 14000;Médecins, radiologie, radiodiagnostic et imagerie médicale
CABINET DE RADIOLOGIE RSBD;30 rue Jean Jaurès;Gisors;27140;30 rue Jean Jaurès Gisors 27140;Médecins, radiologie, radiodiagnostic et imagerie médicale
CABINET DE RADIOLOGIE RSBD;39 rue de Ferrières;Gournay en bray;76220;39 rue de Ferrières Gournay en bray 76220;Médecins, radiologie, radiodiagnostic et imagerie médicale
CABINET RADIOLOGIE;17 rue aux Cornes;Neufchâtel en bray;76270;17 rue aux Cornes Neufchâtel en bray 76270;Médecins, radiologie, radiodiagnostic et imagerie médicale
CABINET RADIOLOGIE CAUX D ALBATRE YVETOT;rue St-Pierre;Yvetot;76190;rue St-Pierre Yvetot 76190;Médecins, radiologie, radiodiagnostic et imagerie médicale
CABINET RADIOLOGIE ECHOGRAPHIE MAMMOGRAPHIE DU VAL LORMEL;9 rue d'Anjou;Le mesnil esnard;76240;9 rue d'Anjou Le mesnil esnard 76240;Médecins, radiologie, radiodiagnostic et imagerie médicale
CACHIA BRUNO;58 quai Vendeuvre;Caen;14000;58 quai Vendeuvre Caen 14000;Médecins, radiologie, radiodiagnostic et imagerie médicale
CASADEÏ FRANÇOIS;87 rue de Trigauville;Le havre;76600;87 rue de Trigauville Le havre 76600;Médecins, radiologie, radiodiagnostic et imagerie médicale
CATROUX GUILLAUME (CHP. ST MARTIN);18 rue des Roquemonts CEDEX 4;Caen;14050;18 rue des Roquemonts CEDEX 4 Caen 14050;Médecins, radiologie, radiodiagnostic et imagerie médicale
CENTRE D'IMAGERIE MÉDICALE DES DRS NEGRA - FABRE BOU ABBOUD ET ASSOCIÉS (CABINET RADIOLOGIE);17 place de Verdun;L'aigle;61300;17 place de Verdun L'aigle 61300;Médecins, radiologie, radiodiagnostic et imagerie médicale
CENTRE DE CANCÉROLOGIE MAURICE TUBIANA;20 avenue Cne Georges Guynemer;Caen;14000;20 avenue Cne Georges Guynemer Caen 14000;Médecins, radiologie, radiodiagnostic et imagerie médicale
CENTRE DE RADIOLOGIE DES DOCTEURS BRISSON ET MATTIUSSI;2 rue Alexandre Dubourg;Honfleur;14600;2 rue Alexandre Dubourg Honfleur 14600;Médecins, radiologie, radiodiagnostic et imagerie médicale
CENTRE DE RADIOLOGIE ENS RADIOLOGIE;42 rue de Verdun;Le havre;76600;42 rue de Verdun Le havre 76600;Médecins, radiologie, radiodiagnostic et imagerie médicale
CENTRE DE RADIOLOGIE ET D'ECHOGRAPHIE;place du Mont Gaillard;Le havre;76620;place du Mont Gaillard Le havre 76620;Médecins, radiologie, radiodiagnostic et imagerie médicale
CENTRE DE RADIOLOGIE ET D'ECHOGRAPHIE DES DOCTEURS OARDA- SALAÜN;1105 Les Belles Portes;Hérouville saint clair;14200;1105 Les Belles Portes Hérouville saint clair 14200;Médecins, radiologie, radiodiagnostic et imagerie médicale
CENTRE DE RADIOLOGIE VENDEUVRE;58 quai Vendeuvre;Caen;14000;58 quai Vendeuvre Caen 14000;Médecins, radiologie, radiodiagnostic et imagerie médicale
CENTRE RADIOLOGIE LEGOFF JEAN-HERVÉ;9 B rue Général de Gaulle;Fleury sur andelle;27380;9 B rue Général de Gaulle Fleury sur andelle 27380;Médecins, radiologie, radiodiagnostic et imagerie médicale
C.E.S.A.P. (CENTRE DE SANTÉ ET DE PRÉVENTION);9 rue Docteur Laënnec;Hérouville saint clair;14200;9 rue Docteur Laënnec Hérouville saint clair 14200;Médecins, radiologie, radiodiagnostic et imagerie médicale
CHALLINE BERTRAND (CHP. ST MARTIN);18 rue des Roquemonts CEDEX 4;Caen;14050;18 rue des Roquemonts CEDEX 4 Caen 14050;Médecins, radiologie, radiodiagnostic et imagerie médicale
C.I.M.N.;17 place de Verdun;L'aigle;61300;17 place de Verdun L'aigle 61300;Médecins, radiologie, radiodiagnostic et imagerie médicale
CLOT JOSEPH;42 rue St-Malo;Valognes;50700;42 rue St-Malo Valognes 50700;Médecins, radiologie, radiodiagnostic et imagerie médicale
CROUZET BENOIT;61 avenue des Canadiens;Sotteville lès rouen;76300;61 avenue des Canadiens Sotteville lès rouen 76300;Médecins, radiologie, radiodiagnostic et imagerie médicale
CROUZET BENOÎT;36 place Eugène Delacroix;Le grand quevilly;76120;36 place Eugène Delacroix Le grand quevilly 76120;Médecins, radiologie, radiodiagnostic et imagerie médicale
CTRE RADIO. SPÉCIALISÉ;41 rue Jean Lecanuet;Rouen;76000;41 rue Jean Lecanuet Rouen 76000;
DE CORNIERE PHILIPPE (CHP. ST MARTIN);18 rue des Roquemonts CEDEX 4;Caen;14050;18 rue des Roquemonts CEDEX 4 Caen 14050;Médecins, radiologie, radiodiagnostic et imagerie médicale
DELERIS SOPHIE;41 rue Jean Lecanuet;Rouen;76000;41 rue Jean Lecanuet Rouen 76000;Médecins, radiologie, radiodiagnostic et imagerie médicale
DIEPPEDALLE PATRICK;41 rue Jean Lecanuet;Rouen;76000;41 rue Jean Lecanuet Rouen 76000;Médecins, radiologie, radiodiagnostic et imagerie médicale
DOCTEURS GONTRAN ET STIERER (SCP);98 rue Marie Fougeray;Granville;50400;98 rue Marie Fougeray Granville 50400;Médecins, radiologie, radiodiagnostic et imagerie médicale
DOUCET SYLVAIN;32 rue Lazare Carnot;Saint etienne du rouvray;76800;32 rue Lazare Carnot Saint etienne du rouvray 76800;Médecins, radiologie, radiodiagnostic et imagerie médicale
DOUCET SYLVAIN;59 rue Isidore Maillé;Saint aubin lès elbeuf;76410;59 rue Isidore Maillé Saint aubin lès elbeuf 76410;Médecins, radiologie, radiodiagnostic et imagerie médicale
DU HÊTRE POURPRE;45 rue Holgate;Carentan;50500;45 rue Holgate Carentan 50500;Médecins, radiologie, radiodiagnostic et imagerie médicale
DUBIEZ CATHERINE;29 avenue du Maréchal Leclerc;Gaillon;27600;29 avenue du Maréchal Leclerc Gaillon 27600;Médecins, radiologie, radiodiagnostic et imagerie médicale
EL JANATI IDRISSI HASSANE;321 rue Alexis de Tocqueville;Saint lô;50000;321 rue Alexis de Tocqueville Saint lô 50000;Médecins, radiologie, radiodiagnostic et imagerie médicale
ELLOUMI SOUFIANE;321 rue Alexis de Tocqueville;Saint lô;50000;321 rue Alexis de Tocqueville Saint lô 50000;Médecins, radiologie, radiodiagnostic et imagerie médicale
FRÉMONT FRANÇOIS;58 quai Vendeuvre;Caen;14000;58 quai Vendeuvre Caen 14000;Médecins, radiologie, radiodiagnostic et imagerie médicale
GARIN FRANÇOIS;58 quai Vendeuvre;Caen;14000;58 quai Vendeuvre Caen 14000;Médecins, radiologie, radiodiagnostic et imagerie médicale
GIOT DOMINIQUE;31 bis rue St-Quentin;Bayeux;14400;31 bis rue St-Quentin Bayeux 14400;Médecins, radiologie, radiodiagnostic et imagerie médicale
GIOT DOMINIQUE;45 rue Holgate;Carentan;50500;45 rue Holgate Carentan 50500;Médecins, radiologie, radiodiagnostic et imagerie médicale
GIRARDOT CATHERINE;2 rue de Mai;Vernon;27200;2 rue de Mai Vernon 27200;Médecins, radiologie, radiodiagnostic et imagerie médicale
GUÉRIN ET POUTZ-FONTAINE (SELARL);7 bis rue Leprevost de Beaumont;Bernay;27300;7 bis rue Leprevost de Beaumont Bernay 27300;Médecins, radiologie, radiodiagnostic et imagerie médicale
GUILLEM PIERRE;41 rue Jean Lecanuet;Rouen;76000;41 rue Jean Lecanuet Rouen 76000;Médecins, radiologie, radiodiagnostic et imagerie médicale
GUILLER PASCAL;8 boulevard Georges Clémenceau;Louviers;27400;8 boulevard Georges Clémenceau Louviers 27400;Médecins, radiologie, radiodiagnostic et imagerie médicale
HEURTAULT KURDZIEL LAMY POTIER;1 avenue du Quesnoy;Saint martin des champs;50300;1 avenue du Quesnoy Saint martin des champs 50300;Médecins, radiologie, radiodiagnostic et imagerie médicale
HOUET HENRI;42 rue St-Malo;Valognes;50700;42 rue St-Malo Valognes 50700;Médecins, radiologie, radiodiagnostic et imagerie médicale
HOULETTE CHRISTINE;32 rue Lazare Carnot;Saint etienne du rouvray;76800;32 rue Lazare Carnot Saint etienne du rouvray 76800;Médecins, radiologie, radiodiagnostic et imagerie médicale
IMAGERIE DU PARC;20 avenue Cne Georges Guynemer;Caen;14000;20 avenue Cne Georges Guynemer Caen 14000;Médecins, radiologie, radiodiagnostic et imagerie médicale
I.R.E.N.;9 avenue de l'Europe;Saint aubin lès elbeuf;76410;9 avenue de l'Europe Saint aubin lès elbeuf 76410;Médecins, radiologie, radiodiagnostic et imagerie médicale
I.R.M. DE L'EURE;rue Léon Schwartzenberg;Evreux;27000;rue Léon Schwartzenberg Evreux 27000;Médecins, radiologie, radiodiagnostic et imagerie médicale
IRM DES VALLÉES;avenue du Docteur Villers;Saint aubin lès elbeuf;76410;avenue du Docteur Villers Saint aubin lès elbeuf 76410;Médecins, radiologie, radiodiagnostic et imagerie médicale
IRM ROUENNAISE;950 rue de la Haie;Bois guillaume;76230;950 rue de la Haie Bois guillaume 76230;Médecins, radiologie, radiodiagnostic et imagerie médicale
ISAMBERT LUC;4 rue Pasteur;Lillebonne;76170;4 rue Pasteur Lillebonne 76170;Médecins, radiologie, radiodiagnostic et imagerie médicale
ISELIN ANNIE (CHP. ST MARTIN);18 rue des Roquemonts CEDEX 4;Caen;14050;18 rue des Roquemonts CEDEX 4 Caen 14050;Médecins, radiologie, radiodiagnostic et imagerie médicale
JOUBERT AGNÈS;41 rue Jean Lecanuet;Rouen;76000;41 rue Jean Lecanuet Rouen 76000;Médecins, radiologie, radiodiagnostic et imagerie médicale
LAMOUREUX CUVELIER (SCM);60 avenue Aristide Briand;Barentin;76360;60 avenue Aristide Briand Barentin 76360;Médecins, radiologie, radiodiagnostic et imagerie médicale
LANEL GOGUILLON BENARD BARTHE;9 B boulevard Georges Clémenceau;Dieppe;76200;9 B boulevard Georges Clémenceau Dieppe 76200;Médecins, radiologie, radiodiagnostic et imagerie médicale
LAURE RICHARD;58 quai Vendeuvre;Caen;14000;58 quai Vendeuvre Caen 14000;Médecins, radiologie, radiodiagnostic et imagerie médicale
LE GOFF EVA;9 rue d'Anjou;Le mesnil esnard;76240;9 rue d'Anjou Le mesnil esnard 76240;Médecins, radiologie, radiodiagnostic et imagerie médicale
LE GOFF JEAN-HERVÉ;9 rue d'Anjou;Le mesnil esnard;76240;9 rue d'Anjou Le mesnil esnard 76240;Médecins, radiologie, radiodiagnostic et imagerie médicale
LE GOFF JEAN-YVES;950 rue de la Haie;Bois guillaume;76230;950 rue de la Haie Bois guillaume 76230;Médecins, radiologie, radiodiagnostic et imagerie médicale
LE ROQUAIS PAUL;31 bis rue St-Quentin;Bayeux;14400;31 bis rue St-Quentin Bayeux 14400;Médecins, radiologie, radiodiagnostic et imagerie médicale
LE ROQUAIS PAUL;45 rue Holgate;Carentan;50500;45 rue Holgate Carentan 50500;Médecins, radiologie, radiodiagnostic et imagerie médicale
LEMERCIER EBTICEM;41 rue Jean Lecanuet;Rouen;76000;41 rue Jean Lecanuet Rouen 76000;Médecins, radiologie, radiodiagnostic et imagerie médicale
LIÉGEOIS FABIEN;61 avenue des Canadiens;Sotteville lès rouen;76300;61 avenue des Canadiens Sotteville lès rouen 76300;Médecins, radiologie, radiodiagnostic et imagerie médicale
LIEGEOIS FABIEN;36 place Eugène Delacroix;Le grand quevilly;76120;36 place Eugène Delacroix Le grand quevilly 76120;Médecins, radiologie, radiodiagnostic et imagerie médicale
MANAGE IT;14 rue Paul Souday;Le havre;76600;14 rue Paul Souday Le havre 76600;Médecins, radiologie, radiodiagnostic et imagerie médicale
MANAGE IT;2 rue Girot;Montivilliers;76290;2 rue Girot Montivilliers 76290;Médecins, radiologie, radiodiagnostic et imagerie médicale
MANAGE IT;505 rue Irène Joliot-Curie;Le havre;76620;505 rue Irène Joliot-Curie Le havre 76620;Médecins, radiologie, radiodiagnostic et imagerie médicale
MARCELLIN- FLAIS VIRGINIE;45 rue Holgate;Carentan;50500;45 rue Holgate Carentan 50500;Médecins, radiologie, radiodiagnostic et imagerie médicale
MARCELLIN-PLAIS VIRGINIE;31 bis rue St-Quentin;Bayeux;14400;31 bis rue St-Quentin Bayeux 14400;Médecins, radiologie, radiodiagnostic et imagerie médicale
MARICHAL YVES (CHP. ST MARTIN);18 rue des Roquemonts CEDEX 4;Caen;14050;18 rue des Roquemonts CEDEX 4 Caen 14050;Médecins, radiologie, radiodiagnostic et imagerie médicale
MARIOTTE BENOIT (CHP. ST MARTIN);18 rue des Roquemonts CEDEX 4;Caen;14050;18 rue des Roquemonts CEDEX 4 Caen 14050;Médecins, radiologie, radiodiagnostic et imagerie médicale
MARLIÈRE FRANCK;9 rue d'Anjou;Le mesnil esnard;76240;9 rue d'Anjou Le mesnil esnard 76240;Médecins, radiologie, radiodiagnostic et imagerie médicale
MILLET PATRICK;41 rue Jean Lecanuet;Rouen;76000;41 rue Jean Lecanuet Rouen 76000;Médecins, radiologie, radiodiagnostic et imagerie médicale
MILLET GILLES;2 rue de Mai;Vernon;27200;2 rue de Mai Vernon 27200;Médecins, radiologie, radiodiagnostic et imagerie médicale
MOISAN YANN;8 boulevard Georges Clémenceau;Louviers;27400;8 boulevard Georges Clémenceau Louviers 27400;Médecins, radiologie, radiodiagnostic et imagerie médicale
MONROC MICHÈLE;41 rue Jean Lecanuet;Rouen;76000;41 rue Jean Lecanuet Rouen 76000;Médecins, radiologie, radiodiagnostic et imagerie médicale
MONROC MICHELLE;950 rue de la Haie;Bois guillaume;76230;950 rue de la Haie Bois guillaume 76230;Médecins, radiologie, radiodiagnostic et imagerie médicale
MORIN PHILIPPE;31 bis rue St-Quentin;Bayeux;14400;31 bis rue St-Quentin Bayeux 14400;Médecins, radiologie, radiodiagnostic et imagerie médicale
MORIN PHILIPPE;45 rue Holgate;Carentan;50500;45 rue Holgate Carentan 50500;Médecins, radiologie, radiodiagnostic et imagerie médicale
MORVAL ERIC;950 rue de la Haie;Bois guillaume;76230;950 rue de la Haie Bois guillaume 76230;Médecins, radiologie, radiodiagnostic et imagerie médicale
MOUCHEL ANDRÉ;42 rue St-Malo;Valognes;50700;42 rue St-Malo Valognes 50700;Médecins, radiologie, radiodiagnostic et imagerie médicale
PAYENNEVILLE GUY;41 rue Jean Lecanuet;Rouen;76000;41 rue Jean Lecanuet Rouen 76000;Médecins, radiologie, radiodiagnostic et imagerie médicale
PAYENNEVILLE HERVÉ;58 quai Vendeuvre;Caen;14000;58 quai Vendeuvre Caen 14000;Médecins, radiologie, radiodiagnostic et imagerie médicale
PERON JEAN-MARC;58 quai Vendeuvre;Caen;14000;58 quai Vendeuvre Caen 14000;Médecins, radiologie, radiodiagnostic et imagerie médicale
PIEL GÉRARD (CHP ST MARTIN);18 rue des Roquemonts CEDEX 4;Caen;14050;18 rue des Roquemonts CEDEX 4 Caen 14050;Médecins, radiologie, radiodiagnostic et imagerie médicale
POTIER ALAIN;42 rue St-Malo;Valognes;50700;42 rue St-Malo Valognes 50700;Médecins, radiologie, radiodiagnostic et imagerie médicale
POULLIAS RAYMOND;32 rue Lazare Carnot;Saint etienne du rouvray;76800;32 rue Lazare Carnot Saint etienne du rouvray 76800;Médecins, radiologie, radiodiagnostic et imagerie médicale
PRILLIEUX ALAIN;42 rue St-Malo;Valognes;50700;42 rue St-Malo Valognes 50700;Médecins, radiologie, radiodiagnostic et imagerie médicale
RADIOLOGIE DU PAYS DE CAUX;8 rue des Petits Moulins;Pont audemer;27500;8 rue des Petits Moulins Pont audemer 27500;Médecins, radiologie, radiodiagnostic et imagerie médicale
RADIOLOGIE DU PAYS DE CAUX;85 rue Léon Gambetta;Bolbec;76210;85 rue Léon Gambetta Bolbec 76210;Médecins, radiologie, radiodiagnostic et imagerie médicale
RADIOLOGIE DU PAYS DE CAUX;4 rue Pasteur;Lillebonne;76170;4 rue Pasteur Lillebonne 76170;Médecins, radiologie, radiodiagnostic et imagerie médicale
RADMOBILE;22 rue du Velay;Saint etienne du rouvray;76800;22 rue du Velay Saint etienne du rouvray 76800;Médecins, radiologie, radiodiagnostic et imagerie médicale
RAYNAUD PIERRE;41 rue Jean Lecanuet;Rouen;76000;41 rue Jean Lecanuet Rouen 76000;Médecins, radiologie, radiodiagnostic et imagerie médicale
IMAGERIE MÉDICALE ALENÇON (RADIOLOGIE DE LA CLINIQUE ET GIE);62 rue Candie;Alençon;61000;62 rue Candie Alençon 61000;Médecins, radiologie, radiodiagnostic et imagerie médicale
IMAGERIE MÉDICALE DU 109 (SEL);109 rue de Messei;Flers;61100;109 rue de Messei Flers 61100;Médecins, radiologie, radiodiagnostic et imagerie médicale
IMAGERIE MÉDICALE NOTRE DAME;83 rue Hector Berlioz;Argentan;61200;83 rue Hector Berlioz Argentan 61200;Médecins, radiologie, radiodiagnostic et imagerie médicale
IMAGERIES MÉDICALES;78 route du Havre;Saint valery en caux;76460;78 route du Havre Saint valery en caux 76460;Médecins, radiologie, radiodiagnostic et imagerie médicale
IMAGERIE MÉDICALE ALENÇON;16 rue de l'Ecusson;Alençon;61000;16 rue de l'Ecusson Alençon 61000;Médecins, radiologie, radiodiagnostic et imagerie médicale
IMAGERIE MÉDICALE ALENÇON;64 rue Candie;Alençon;61000;64 rue Candie Alençon 61000;
CENTRE D'IMAGERIE MEDICALE DU THEATRE - CAEN;14 rue des Jacobins;Caen;14000;14 rue des Jacobins Caen 14000;Médecins, radiologie, radiodiagnostic et imagerie médicale
CENTRE D'IMAGERIE MÉDICALE SPÉCIALISÉE DE L'EURE (C.I.M.S.E.);rue Léon Schwartzenberg;Evreux;27000;rue Léon Schwartzenberg Evreux 27000;Médecins, radiologie, radiodiagnostic et imagerie médicale
CENTRE HAVRAIS D'IMAGERIE MÉDICALE;505 rue Irène Joliot-Curie Hôpital Privé De L'estuaire;;;505 rue Irène Joliot-Curie Hôpital Privé De L'estuaire  ;Médecins, radiologie, radiodiagnostic et imagerie médicale
CENTRE IMAGERIE MÉDICALE LA LICORNE;321 rue Alexis de Tocqueville;Saint lô;50000;321 rue Alexis de Tocqueville Saint lô 50000;Médecins, radiologie, radiodiagnostic et imagerie médicale
CABINET DE RADIOLOGIE ET D'IMAGERIE MÉDICALE DU CÈDRE;950 rue de la Haie Porte B;Bois guillaume;76230;950 rue de la Haie Porte B Bois guillaume 76230;Médecins, radiologie, radiodiagnostic et imagerie médicale
CABINET IMAGERIE MÉDICALE DR ERIC GALLETY;45 rue Porte de Bourth;Verneuil sur avre;27130;45 rue Porte de Bourth Verneuil sur avre 27130;Médecins, radiologie, radiodiagnostic et imagerie médicale
CENTRE D'IMAGERIE MÉDICALE;avenue du Thivet Polyclinique Du Cotentin;;50120;avenue du Thivet Polyclinique Du Cotentin  50120;
