Nom;Adresse;Commune;CP;concat;catégorie d'activité
SELARL DES DOCTEURS FAY GAYER- LINGUENHELD ET JACQUES;4 rue du Puits;Obernai;67210;4 rue du Puits Obernai 67210;Médecins, radiologie, radiodiagnostic et imagerie médicale
CHIRURGIE THORACIQUE DES DEUX RIVES;2 2 rue François Epailly;Strasbourg;67000;2 2 rue François Epailly Strasbourg 67000;Médecins, radiologie, radiodiagnostic et imagerie médicale
DE VERBIZIER JACQUES;79 rue de Metz;Talange;57525;79 rue de Metz Talange 57525;Médecins, radiologie, radiodiagnostic et imagerie médicale
DAXHELET BERNARD;79 rue de Metz;Talange;57525;79 rue de Metz Talange 57525;Médecins, radiologie, radiodiagnostic et imagerie médicale
DE VERBIZIER JACQUES;79 rue de Metz;Talange;57525;79 rue de Metz Talange 57525;Médecins, radiologie, radiodiagnostic et imagerie médicale
PÊCHEUR SCHUMMER TOUSSAIN;1 rue Jeanne d'Arc;Briey;54150;1 rue Jeanne d'Arc Briey 54150;Médecins, radiologie, radiodiagnostic et imagerie médicale
PEIFFERT PAOLA;13 bis rue Blaise Pascal Za St Jacques;Maxéville;54320;13 bis rue Blaise Pascal Za St Jacques Maxéville 54320;Médecins, radiologie, radiodiagnostic et imagerie médicale
PFLEGER DOMINIQUE;85 route du Polygone;Strasbourg;67100;85 route du Polygone Strasbourg 67100;Médecins, radiologie, radiodiagnostic et imagerie médicale
PFLEGER NICOLAS;13 rue Raymond Poincaré;Bischwiller;67240;13 rue Raymond Poincaré Bischwiller 67240;Médecins, radiologie, radiodiagnostic et imagerie médicale
PHILIPPE VINÉE - BERTRAND METHLIN ET ANDRÉA RUSNAK;4 rue Georges Clémenceau;Sélestat;67600;4 rue Georges Clémenceau Sélestat 67600;Médecins, radiologie, radiodiagnostic et imagerie médicale
POP RADIOLOGIE;12 avenue de Robache;Saint dié des vosges;88100;12 avenue de Robache Saint dié des vosges 88100;Médecins, radiologie, radiodiagnostic et imagerie médicale
PRESSEL PATRICK;4 rue de Mulhouse;Rixheim;68170;4 rue de Mulhouse Rixheim 68170;Médecins, radiologie, radiodiagnostic et imagerie médicale
RADIOLOGIE LE POINT CARRÉ;13 avenue Raymond Poincaré;Sarrebourg;57400;13 avenue Raymond Poincaré Sarrebourg 57400;Médecins, radiologie, radiodiagnostic et imagerie médicale
RADIOLOR;13 rue Roger Salengro;Neuves maisons;54230;13 rue Roger Salengro Neuves maisons 54230;Médecins, radiologie, radiodiagnostic et imagerie médicale
RADIOLOR (BOURREL - MENUT - BUI);23 rue Boulay de la Meurthe;Epinal;88000;23 rue Boulay de la Meurthe Epinal 88000;Médecins, radiologie, radiodiagnostic et imagerie médicale
RADIOLOR (BOURREL - MENUT - BUI);9 avenue du Rose Poirier;Epinal;88000;9 avenue du Rose Poirier Epinal 88000;Médecins, radiologie, radiodiagnostic et imagerie médicale
RECK ALAIN;4 rue de Mulhouse;Rixheim;68170;4 rue de Mulhouse Rixheim 68170;Médecins, radiologie, radiodiagnostic et imagerie médicale
RIPOTOT PHILIPPE;48 rue de Phalsbourg;Sarre union;67260;48 rue de Phalsbourg Sarre union 67260;Médecins, radiologie, radiodiagnostic et imagerie médicale
ROTUNNO ANTOINE;53 C rue de Turckheim;Colmar;68000;53 C rue de Turckheim Colmar 68000;Médecins, radiologie, radiodiagnostic et imagerie médicale
ROUSSEL-ANDRY ELISABETH;125 rue St-Dizier;Nancy;54000;125 rue St-Dizier Nancy 54000;Médecins, radiologie, radiodiagnostic et imagerie médicale
SAADATE MARYAM;125 rue St-Dizier;Nancy;54000;125 rue St-Dizier Nancy 54000;Médecins, radiologie, radiodiagnostic et imagerie médicale
SCANNER DE L'ORANGERIE;29 allee de la Robertsau;Strasbourg;67000;29 allee de la Robertsau Strasbourg 67000;Médecins, radiologie, radiodiagnostic et imagerie médicale
SCANNER ET IMAGERIE MÉDICALE WILSON;30 rue du Faubourg de Saverne;Strasbourg;67000;30 rue du Faubourg de Saverne Strasbourg 67000;Médecins, radiologie, radiodiagnostic et imagerie médicale
SCANNER INTERCLINIQUES DE LA MODER;1 rue Colome;Haguenau;67500;1 rue Colome Haguenau 67500;Médecins, radiologie, radiodiagnostic et imagerie médicale
SCANNER SAINT THIEBAULT;12 rue des Augustins;Metz;57000;12 rue des Augustins Metz 57000;Médecins, radiologie, radiodiagnostic et imagerie médicale
SCHALLER MARCEL;10 rue du Général de Gaulle;Brumath;67170;10 rue du Général de Gaulle Brumath 67170;Médecins, radiologie, radiodiagnostic et imagerie médicale
SCHWARTZ CHRISTIAN;place Chanoine Collin;Clouange;57185;place Chanoine Collin Clouange 57185;Médecins, radiologie, radiodiagnostic et imagerie médicale
SCHWARTZ CHRISTIAN;20 rue Nationale;Sarreguemines;57200;20 rue Nationale Sarreguemines 57200;Médecins, radiologie, radiodiagnostic et imagerie médicale
SCHWEITZER HUGUES;125 rue St-Dizier;Nancy;54000;125 rue St-Dizier Nancy 54000;Médecins, radiologie, radiodiagnostic et imagerie médicale
SCM ORNE RADIOLOGIE;20 rue de la Gare;Hagondange;57300;20 rue de la Gare Hagondange 57300;Médecins, radiologie, radiodiagnostic et imagerie médicale
SCM R.I.M. (RADIOLOGIE IMAGERIE MÉDICALE);4 rue de Mulhouse;Rixheim;68170;4 rue de Mulhouse Rixheim 68170;Médecins, radiologie, radiodiagnostic et imagerie médicale
SCP DOCTEURS ATTAR ET HERRMANN;2 rue Salvador Allendé;Villerupt;54190;2 rue Salvador Allendé Villerupt 54190;Médecins, radiologie, radiodiagnostic et imagerie médicale
SEL EURL D'ISLY;35 bis rue St-Louis;Verdun;55100;35 bis rue St-Louis Verdun 55100;Médecins, radiologie, radiodiagnostic et imagerie médicale
SELARL AMIM (DRS BECKER ET BRUN);1 rue St-Sauveur;Mulhouse;68100;1 rue St-Sauveur Mulhouse 68100;Médecins, radiologie, radiodiagnostic et imagerie médicale
SELARL DES DOCTEURS FAY GAYER-LINGUENHELD ET JACQUES;4 rue du Puits;Obernai;67210;4 rue du Puits Obernai 67210;Médecins, radiologie, radiodiagnostic et imagerie médicale
SIMON DOMINIQUE;20 rue de la Gare;Hagondange;57300;20 rue de la Gare Hagondange 57300;Médecins, radiologie, radiodiagnostic et imagerie médicale
SIMSE;rue de Zagreb;Schiltigheim;67300;rue de Zagreb Schiltigheim 67300;Médecins, radiologie, radiodiagnostic et imagerie médicale
SOC DRS F DONZE MAINGOT ET B DONZE;11 rue Raymond Parmentier;Dugny sur meuse;55100;11 rue Raymond Parmentier Dugny sur meuse 55100;Médecins, radiologie, radiodiagnostic et imagerie médicale
STAEBLER FRANCIS;163 avenue d'Alsace;Colmar;68000;163 avenue d'Alsace Colmar 68000;Médecins, radiologie, radiodiagnostic et imagerie médicale
STURTZER FRANCIS;15 rue des 4 Vents;Wissembourg;67160;15 rue des 4 Vents Wissembourg 67160;Médecins, radiologie, radiodiagnostic et imagerie médicale
SUTTER PIERRE-ANTOINE;3 rue de l'Etang;Thann;68800;3 rue de l'Etang Thann 68800;Médecins, radiologie, radiodiagnostic et imagerie médicale
TOUSSAINT DOMINIQUE;33 rue de Verdun;Jarny;54800;33 rue de Verdun Jarny 54800;Médecins, radiologie, radiodiagnostic et imagerie médicale
UBISANTE;5 rue du Général Koënig;Reichshoffen;67110;5 rue du Général Koënig Reichshoffen 67110;Médecins, radiologie, radiodiagnostic et imagerie médicale
VALLERICH MICHEL;48 rue de Phalsbourg;Sarre union;67260;48 rue de Phalsbourg Sarre union 67260;Médecins, radiologie, radiodiagnostic et imagerie médicale
WIEDEMANN JEAN-LOUIS, JACOB CLAUDE ET TRILLAUD EVELYNE (SCM);3 rue de la Libération;Rohrbach lès bitche;57410;3 rue de la Libération Rohrbach lès bitche 57410;Médecins, radiologie, radiodiagnostic et imagerie médicale
WILDY-BOSSER VALÉRIE;53 C rue de Turckheim;Colmar;68000;53 C rue de Turckheim Colmar 68000;Médecins, radiologie, radiodiagnostic et imagerie médicale
ZHU;8 place de la République;Illzach;68110;8 place de la République Illzach 68110;Médecins, radiologie, radiodiagnostic et imagerie médicale
ACHRAFI SOPHIE;7 rue Pierre Taittinger;Reims;51100;7 rue Pierre Taittinger Reims 51100;Médecins, radiologie, radiodiagnostic et imagerie médicale
AZANCOT MARC;14 rue du Ravelin;Troyes;10000;14 rue du Ravelin Troyes 10000;Médecins, radiologie, radiodiagnostic et imagerie médicale
CAB IMAGERIE MED CLINIQUE CHAUMONT;17 avenue des Etats-Unis;Chaumont;52000;17 avenue des Etats-Unis Chaumont 52000;Médecins, radiologie, radiodiagnostic et imagerie médicale
CABINET RADIOLOGIQUE;45 avenue de Manchester;Charleville mézières;08000;45 avenue de Manchester Charleville mézières 08000;Médecins, radiologie, radiodiagnostic et imagerie médicale
CABINET RADIOLOGIQUE (SCM ROSSIGNOL MICHEL ET COHEN SYLVIE);99 cours Aristide Briand;Charleville mézières;08000;99 cours Aristide Briand Charleville mézières 08000;Médecins, radiologie, radiodiagnostic et imagerie médicale
CABINET RADIOLOGIQUE DES DOCTEURS BORDEAUX ET AIEM;18 avenue Georges Corneau;Charleville mézières;08000;18 avenue Georges Corneau Charleville mézières 08000;Médecins, radiologie, radiodiagnostic et imagerie médicale
CABINET RADIOLOGIQUE ECHOGRAPHIQUE MONNIER YVES;73 avenue Carnot;Charleville mézières;08000;73 avenue Carnot Charleville mézières 08000;Médecins, radiologie, radiodiagnostic et imagerie médicale
CABINET RADIOLOGIQUE IRM;avenue de Manchester Pte 41;Charleville mézières;08000;avenue de Manchester Pte 41 Charleville mézières 08000;Médecins, radiologie, radiodiagnostic et imagerie médicale
CAQUOT LOUIS-MICHEL;88 rue de la Maison Blanche;Reims;51100;88 rue de la Maison Blanche Reims 51100;Médecins, radiologie, radiodiagnostic et imagerie médicale
CASSIMAN STEVEN;30 route de Dijon;Saints geosmes;52200;30 route de Dijon Saints geosmes 52200;Médecins, radiologie, radiodiagnostic et imagerie médicale
C.I.M.C. (CENTRE D'IMAGERIE MONTIER LA CELLE);17 rue Charles Baltet;Saint andré les vergers;10120;17 rue Charles Baltet Saint andré les vergers 10120;Médecins, radiologie, radiodiagnostic et imagerie médicale
CLINIQUE DE CHAMPAGNE (LA PAIX);4 rue Chaïm Soutine;Troyes;10000;4 rue Chaïm Soutine Troyes 10000;Médecins, radiologie, radiodiagnostic et imagerie médicale
CONSTANT PHILIPPE;17 rue Charles Baltet;Saint andré les vergers;10120;17 rue Charles Baltet Saint andré les vergers 10120;Médecins, radiologie, radiodiagnostic et imagerie médicale
CULIOLI JEAN-JACQUES;17 rue Charles Baltet;Saint andré les vergers;10120;17 rue Charles Baltet Saint andré les vergers 10120;Médecins, radiologie, radiodiagnostic et imagerie médicale
DE FAUP PHILIPPE;14 rue du Ravelin;Troyes;10000;14 rue du Ravelin Troyes 10000;Médecins, radiologie, radiodiagnostic et imagerie médicale
DEGLAIRE MICHEL;14 avenue du 29 Août 1944;Tinqueux;51430;14 avenue du 29 Août 1944 Tinqueux 51430;Médecins, radiologie, radiodiagnostic et imagerie médicale
DELCOURT CÉDRIC;2 rue de Neufchatel;Reims;51100;2 rue de Neufchatel Reims 51100;Médecins, radiologie, radiodiagnostic et imagerie médicale
DESCHARMES ERIC;122 avenue du Gén Charles de Gaulle;Châlons en champagne;51000;122 avenue du Gén Charles de Gaulle Châlons en champagne 51000;Médecins, radiologie, radiodiagnostic et imagerie médicale
DOCTEURS AMSELLE GODOC BARBIER-ROMAIN VI (SCM);3 rue des Huguenots;Epernay;51200;3 rue des Huguenots Epernay 51200;Médecins, radiologie, radiodiagnostic et imagerie médicale
GAILLARD DOMINIQUE;40 faubourg de Vitry le Brulé;Vitry le françois;51300;40 faubourg de Vitry le Brulé Vitry le françois 51300;Médecins, radiologie, radiodiagnostic et imagerie médicale
GILET FRANÇOIS;17 rue Charles Baltet;Saint andré les vergers;10120;17 rue Charles Baltet Saint andré les vergers 10120;Médecins, radiologie, radiodiagnostic et imagerie médicale
GOLDER WERNER;17 rue Charles Baltet;Saint andré les vergers;10120;17 rue Charles Baltet Saint andré les vergers 10120;Médecins, radiologie, radiodiagnostic et imagerie médicale
HUTIN JEAN-FRANÇOIS;2 rue de Neufchatel;Reims;51100;2 rue de Neufchatel Reims 51100;Médecins, radiologie, radiodiagnostic et imagerie médicale
HUVELLE-GIRARDOT VIRGINIE;12 place d'Alsace-Lorraine;Sedan;08200;12 place d'Alsace-Lorraine Sedan 08200;Médecins, radiologie, radiodiagnostic et imagerie médicale
IMAGERIE MÉDICALE DES DOCTEURS DEFAUT ET DELVINQUIERE (SCM);3 rue Louise Weiss;Rethel;08300;3 rue Louise Weiss Rethel 08300;Médecins, radiologie, radiodiagnostic et imagerie médicale
IMAGERIE TERLINE (BREIDT DEJUGNAT DELLEAUX ROMAIN);3 rue Mal des Logis de Terline;Châlons en champagne;51000;3 rue Mal des Logis de Terline Châlons en champagne 51000;Médecins, radiologie, radiodiagnostic et imagerie médicale
I.R.M;51 rue du Commandant Derrien;Châlons en champagne;51000;51 rue du Commandant Derrien Châlons en champagne 51000;Médecins, radiologie, radiodiagnostic et imagerie médicale
IRM SECRETARIAT PRISE DE RENDEZ-VOUS;avenue de Manchester Pte 41;Charleville mézières;08000;avenue de Manchester Pte 41 Charleville mézières 08000;Médecins, radiologie, radiodiagnostic et imagerie médicale
LEBON CHRISTIAN;12 place d'Alsace-Lorraine;Sedan;08200;12 place d'Alsace-Lorraine Sedan 08200;Médecins, radiologie, radiodiagnostic et imagerie médicale
LECLERE RÉMI;2 rue de Neufchatel;Reims;51100;2 rue de Neufchatel Reims 51100;Médecins, radiologie, radiodiagnostic et imagerie médicale
LUCAS PATRICK;38 rue de Courlancy;Reims;51100;38 rue de Courlancy Reims 51100;Médecins, radiologie, radiodiagnostic et imagerie médicale
MICHEL FABRICE;122 avenue du Gén Charles de Gaulle;Châlons en champagne;51000;122 avenue du Gén Charles de Gaulle Châlons en champagne 51000;Médecins, radiologie, radiodiagnostic et imagerie médicale
NEIRYNCK ERIC;10 rue de la Charité;Langres;52200;10 rue de la Charité Langres 52200;Médecins, radiologie, radiodiagnostic et imagerie médicale
NEIRYNCK ERIC;30 route de Dijon;Saints geosmes;52200;30 route de Dijon Saints geosmes 52200;Médecins, radiologie, radiodiagnostic et imagerie médicale
PAYS DE SEINE RADIOLOGIE;98 avenue Jean Jaurès Bât Pays De Seine Radiol;;;98 avenue Jean Jaurès Bât Pays De Seine Radiol  ;Médecins, radiologie, radiodiagnostic et imagerie médicale
PERRIN NATHALIE;14 rue du Ravelin;Troyes;10000;14 rue du Ravelin Troyes 10000;Médecins, radiologie, radiodiagnostic et imagerie médicale
PHARMACIE FRANCOIS;9 place d'Austerlitz;Sainte menehould;51800;9 place d'Austerlitz Sainte menehould 51800;Médecins, radiologie, radiodiagnostic et imagerie médicale
POISMANS PASCALE;122 avenue du Gén Charles de Gaulle;Châlons en champagne;51000;122 avenue du Gén Charles de Gaulle Châlons en champagne 51000;Médecins, radiologie, radiodiagnostic et imagerie médicale
RADIOLOGIE DU PARVIS DE LA GARE (SCM);14 rue du Ravelin;Troyes;10000;14 rue du Ravelin Troyes 10000;Médecins, radiologie, radiodiagnostic et imagerie médicale
RADIOLOGIE MÉDECINE NUCLÉAIRE;3 rue des Huguenots;Epernay;51200;3 rue des Huguenots Epernay 51200;Médecins, radiologie, radiodiagnostic et imagerie médicale
RADIOLOGIVET;11 place Jacques Sourdille Bât Centre Radiologie De;;;11 place Jacques Sourdille Bât Centre Radiologie De  ;Médecins, radiologie, radiodiagnostic et imagerie médicale
TERRUSSOT GÉRARD;30 route de Dijon;Saints geosmes;52200;30 route de Dijon Saints geosmes 52200;Médecins, radiologie, radiodiagnostic et imagerie médicale
VOILLEMIN JEAN-FRANÇOIS;30 route de Dijon;Saints geosmes;52200;30 route de Dijon Saints geosmes 52200;Médecins, radiologie, radiodiagnostic et imagerie médicale
VOILLEMIN TERRUSSOT ET CASSIMAN (S.C.P DE RADIOLOGIE DES DOCTEURS);10 rue de la Charité;Langres;52200;10 rue de la Charité Langres 52200;Médecins, radiologie, radiodiagnostic et imagerie médicale
WINANTS DOMINIQUE;40 faubourg de Vitry le Brulé;Vitry le françois;51300;40 faubourg de Vitry le Brulé Vitry le françois 51300;Médecins, radiologie, radiodiagnostic et imagerie médicale
ANDREI CLAUDIU;19 avenue 1ère Div P Grenadiers;Dieuze;57260;19 avenue 1ère Div P Grenadiers Dieuze 57260;Médecins, radiologie, radiodiagnostic et imagerie médicale
ARIA;20 rue de Kingersheim;Wittenheim;68270;20 rue de Kingersheim Wittenheim 68270;Médecins, radiologie, radiodiagnostic et imagerie médicale
ARJEOR;115 rue St-Eloi;Vittel;88800;115 rue St-Eloi Vittel 88800;Médecins, radiologie, radiodiagnostic et imagerie médicale
ARNOULD VINCENT;163 avenue d'Alsace;Colmar;68000;163 avenue d'Alsace Colmar 68000;Médecins, radiologie, radiodiagnostic et imagerie médicale
ARSENA THIERRY;13 bis rue Blaise Pascal Za St Jacques;Maxéville;54320;13 bis rue Blaise Pascal Za St Jacques Maxéville 54320;Médecins, radiologie, radiodiagnostic et imagerie médicale
ASSOC.DEV.ACCÈS.IMAGE.MED.;1 rue du 5 Décembre;Freyming merlebach;57800;1 rue du 5 Décembre Freyming merlebach 57800;Médecins, radiologie, radiodiagnostic et imagerie médicale
ASSOCIATION IMAGERIE MÉDICALE ECHOGRAPHIE RADIOLOGIE DRS LEJEUNE BRECHON BLEIRAD RIZZOLI DAVRIL;2 bis rue Winston Churchill;Metz;57000;2 bis rue Winston Churchill Metz 57000;Médecins, radiologie, radiodiagnostic et imagerie médicale
AUG FRANCOIS;13 rue Blaise Pascal Za St Jacques;Maxéville;54320;13 rue Blaise Pascal Za St Jacques Maxéville 54320;Médecins, radiologie, radiodiagnostic et imagerie médicale
BERMONT PHILIPPE;1 rue Lemud;Pont à mousson;54700;1 rue Lemud Pont à mousson 54700;Médecins, radiologie, radiodiagnostic et imagerie médicale
BERNARD CORINNE;25 rue d'Hellieule;Saint dié des vosges;88100;25 rue d'Hellieule Saint dié des vosges 88100;Médecins, radiologie, radiodiagnostic et imagerie médicale
BERTHELEN BERNARD;13 rue Raymond Poincaré;Bischwiller;67240;13 rue Raymond Poincaré Bischwiller 67240;Médecins, radiologie, radiodiagnostic et imagerie médicale
BITTIGHOFFER-CHEVALLET (SCM);2 rue de Ferrette;Altkirch;68130;2 rue de Ferrette Altkirch 68130;Médecins, radiologie, radiodiagnostic et imagerie médicale
BLANCHOT PATRICK;125 rue St-Dizier;Nancy;54000;125 rue St-Dizier Nancy 54000;Médecins, radiologie, radiodiagnostic et imagerie médicale
BLONDE EMMANUEL;7 rue Traversière;Cernay;68700;7 rue Traversière Cernay 68700;Médecins, radiologie, radiodiagnostic et imagerie médicale
BOUR CÉCILE;place Chanoine Collin;Clouange;57185;place Chanoine Collin Clouange 57185;Médecins, radiologie, radiodiagnostic et imagerie médicale
BOUR DALLY DAXHELET DE VERBIZIER DIETSCH FIEVET FRIARD SCHWARTZ (SELARL DES DRS);place Chanoine Collin;Clouange;57185;place Chanoine Collin Clouange 57185;Médecins, radiologie, radiodiagnostic et imagerie médicale
BOUZIANI MOHAMMED;163 avenue d'Alsace;Colmar;68000;163 avenue d'Alsace Colmar 68000;Médecins, radiologie, radiodiagnostic et imagerie médicale
BRASSE FRANÇOIS;3 rue de Maillane Clinique St Nabor;Saint avold;57500;3 rue de Maillane Clinique St Nabor Saint avold 57500;Médecins, radiologie, radiodiagnostic et imagerie médicale
BURGAIN SYLVAIN RAMBOUT FRANÇOIS (SEL);13 avenue François Mitterrand;Fameck;57290;13 avenue François Mitterrand Fameck 57290;Médecins, radiologie, radiodiagnostic et imagerie médicale
BURGER ET TEISENTZ (SCM);6 place du Luxembourg;Thionville;57100;6 place du Luxembourg Thionville 57100;Médecins, radiologie, radiodiagnostic et imagerie médicale
CABINET D'ANGIOLOGIE SAINTAVASCULAR;3 rue de Brack;Saint avold;57500;3 rue de Brack Saint avold 57500;Médecins, radiologie, radiodiagnostic et imagerie médicale
CABINET DE RADIOLOGIE;13 rue Raymond Poincaré;Bischwiller;67240;13 rue Raymond Poincaré Bischwiller 67240;Médecins, radiologie, radiodiagnostic et imagerie médicale
CABINET DE RADIOLOGIE CLEMENCEAU;4 rue Georges Clémenceau;Sélestat;67600;4 rue Georges Clémenceau Sélestat 67600;Médecins, radiologie, radiodiagnostic et imagerie médicale
CABINET DE RADIOLOGIE DE LA GARE SÉLESTAT;2 rue de la Gare;Sélestat;67600;2 rue de la Gare Sélestat 67600;Médecins, radiologie, radiodiagnostic et imagerie médicale
CABINET DE RADIOLOGIE DE LA MONTAGNE VERTE;26 rue des Carolingiens;Strasbourg;67200;26 rue des Carolingiens Strasbourg 67200;Médecins, radiologie, radiodiagnostic et imagerie médicale
CABINET DE RADIOLOGIE DES DOCTEURS AMEREIN ET THOMANN;10 rue des Vosges;Sarreguemines;57200;10 rue des Vosges Sarreguemines 57200;Médecins, radiologie, radiodiagnostic et imagerie médicale
CABINET DE RADIOLOGIE DES DOCTEURS CARDOSI-HOLVECK-BAUR-RIMMELIN-WENGER-WOERLY-VILLEVAL;29 allee de la Robertsau;Strasbourg;67000;29 allee de la Robertsau Strasbourg 67000;Médecins, radiologie, radiodiagnostic et imagerie médicale
CABINET DE RADIOLOGIE DES DOCTEURS CARDOSI-HOLVECK-BAUR-RIMMELIN-WENGER-WOERLY-VILLEVAL;29 allee de la Robertsau;Strasbourg;67000;29 allee de la Robertsau Strasbourg 67000;Médecins, radiologie, radiodiagnostic et imagerie médicale
CABINET DE RADIOLOGIE DES DOCTEURS CHANSEL ET CAQUELIN;29 avenue Carnot;Saint max;54130;29 avenue Carnot Saint max 54130;Médecins, radiologie, radiodiagnostic et imagerie médicale
CABINET DE RADIOLOGIE DES DOCTEURS CLÉMENT-HORVATH PÊCHEUR SHUMMER TOUSSAINT;26 rue St-Robert;Joeuf;54240;26 rue St-Robert Joeuf 54240;Médecins, radiologie, radiodiagnostic et imagerie médicale
CABINET DE RADIOLOGIE DES DOCTEURS ETHÈVE ET JUNG;23 boulevard de l'Europe Centre Social Les Nations;;;23 boulevard de l'Europe Centre Social Les Nations  ;Médecins, radiologie, radiodiagnostic et imagerie médicale
CABINET DE RADIOLOGIE DES DOCTEURS ETHEVE ET JUNG;1 boulevard du Maréchal Lyautey;Villers lès nancy;54600;1 boulevard du Maréchal Lyautey Villers lès nancy 54600;Médecins, radiologie, radiodiagnostic et imagerie médicale
CABINET DE RADIOLOGIE DES DOCTEURS GÉRARD MORGENSTERN VASILESCU;46 boulevard d'Anvers;Strasbourg;67000;46 boulevard d'Anvers Strasbourg 67000;Médecins, radiologie, radiodiagnostic et imagerie médicale
CABINET DE RADIOLOGIE DES DRS ETZEL ET HIRTZ;1 place de la République;Thionville;57100;1 place de la République Thionville 57100;Médecins, radiologie, radiodiagnostic et imagerie médicale
CABINET DE RADIOLOGIE DES DRS LANDRON ET MUSANDA;23 rue des Prêtres;Remiremont;88200;23 rue des Prêtres Remiremont 88200;Médecins, radiologie, radiodiagnostic et imagerie médicale
CABINET DE RADIOLOGIE DU DOCTEUR SCHALLER MARCEL;10 rue du Général de Gaulle;Brumath;67170;10 rue du Général de Gaulle Brumath 67170;Médecins, radiologie, radiodiagnostic et imagerie médicale
CABINET DE RADIOLOGIE ET D'ECHOGRAPHIE (SCM);25 rue d'Hellieule;Saint dié des vosges;88100;25 rue d'Hellieule Saint dié des vosges 88100;Médecins, radiologie, radiodiagnostic et imagerie médicale
CABINET DE RADIOLOGIE ET ECHOGRAPHIE (DOCTEURS MILION ET CONCHON);18 rue Entre les 2 Portes;Epinal;88000;18 rue Entre les 2 Portes Epinal 88000;Médecins, radiologie, radiodiagnostic et imagerie médicale
CABINET DE RADIOLOGIE GRADIENT HAUPTMANN (SELARL);2 rue Louis Pasteur;Mulhouse;68100;2 rue Louis Pasteur Mulhouse 68100;Médecins, radiologie, radiodiagnostic et imagerie médicale
CABINET DE RADIOLOGIE JULES FERRY;25 rue Jules Ferry;Raon l'etape;88110;25 rue Jules Ferry Raon l'etape 88110;Médecins, radiologie, radiodiagnostic et imagerie médicale
CABINET DE RADIOLOGIE SOULIÉ ET CHANTEREAU (SELARL);place du Marché;Saint avold;57500;place du Marché Saint avold 57500;Médecins, radiologie, radiodiagnostic et imagerie médicale
CABINET DE RADIOLOGIE VOYDEVILLE;96 rue des Jardins Fleuris;Pompey;54340;96 rue des Jardins Fleuris Pompey 54340;Médecins, radiologie, radiodiagnostic et imagerie médicale
CALVET DELPHINE;163 avenue d'Alsace;Colmar;68000;163 avenue d'Alsace Colmar 68000;Médecins, radiologie, radiodiagnostic et imagerie médicale
CANNARD LIONEL;125 rue St-Dizier;Nancy;54000;125 rue St-Dizier Nancy 54000;Médecins, radiologie, radiodiagnostic et imagerie médicale
CAQUEL JEAN-FRANÇOIS;25 rue d'Hellieule;Saint dié des vosges;88100;25 rue d'Hellieule Saint dié des vosges 88100;Médecins, radiologie, radiodiagnostic et imagerie médicale
CENTRE D'IMAGERIE BOUR -DALLY -DAXHELET -DE VERBIZIER -DIETSCH -FIEVET -FRIARD -SCHWARTZ;79 rue de Metz;Talange;57525;79 rue de Metz Talange 57525;Médecins, radiologie, radiodiagnostic et imagerie médicale
CENTRE DE SÉNOLOGIE FEMINAE - CHAPUIS ANNE (MALADIE DU SEIN);97 rue Claude Bernard;Metz;57000;97 rue Claude Bernard Metz 57000;Médecins, radiologie, radiodiagnostic et imagerie médicale
CHANTEREAU DIDIER;6 place St-Nabor Le Forum;Saint avold;57500;6 place St-Nabor Le Forum Saint avold 57500;Médecins, radiologie, radiodiagnostic et imagerie médicale
CHARLES GÉRARD;13 rue Raymond Poincaré;Bischwiller;67240;13 rue Raymond Poincaré Bischwiller 67240;Médecins, radiologie, radiodiagnostic et imagerie médicale
CIM 3 F;15 rue de Mulhouse;Saint louis;68300;15 rue de Mulhouse Saint louis 68300;Médecins, radiologie, radiodiagnostic et imagerie médicale
CIMED D'ALSACE BOSSUE;48 rue de Phalsbourg;Sarre union;67260;48 rue de Phalsbourg Sarre union 67260;
C.I.M.E.N;85 route du Polygone;Strasbourg;67100;85 route du Polygone Strasbourg 67100;Médecins, radiologie, radiodiagnostic et imagerie médicale
CONCHON PHILIPPE;18 rue Entre les 2 Portes;Epinal;88000;18 rue Entre les 2 Portes Epinal 88000;Médecins, radiologie, radiodiagnostic et imagerie médicale
COTTET FRANÇOIS;3 rue du Linkling Carré Le Kem;Terville;57180;3 rue du Linkling Carré Le Kem Terville 57180;Médecins, radiologie, radiodiagnostic et imagerie médicale
DALE GÉRARD;avenue de Londres;Schiltigheim;67300;avenue de Londres Schiltigheim 67300;Médecins, radiologie, radiodiagnostic et imagerie médicale
DALLY PIERRE;place Chanoine Collin;Clouange;57185;place Chanoine Collin Clouange 57185;Médecins, radiologie, radiodiagnostic et imagerie médicale
DE VERBIZIER GILLES;place Chanoine Collin;Clouange;57185;place Chanoine Collin Clouange 57185;Médecins, radiologie, radiodiagnostic et imagerie médicale
DEBELLE LAURENT;125 rue St-Dizier;Nancy;54000;125 rue St-Dizier Nancy 54000;Médecins, radiologie, radiodiagnostic et imagerie médicale
DELGOFFE CHRISTIAN;125 rue St-Dizier;Nancy;54000;125 rue St-Dizier Nancy 54000;Médecins, radiologie, radiodiagnostic et imagerie médicale
DESPORTES MONIQUE;48 rue de Phalsbourg;Sarre union;67260;48 rue de Phalsbourg Sarre union 67260;Médecins, radiologie, radiodiagnostic et imagerie médicale
DETTLOFF LAURENCE;163 avenue d'Alsace;Colmar;68000;163 avenue d'Alsace Colmar 68000;Médecins, radiologie, radiodiagnostic et imagerie médicale
DIETSCH MARC;place Chanoine Collin;Clouange;57185;place Chanoine Collin Clouange 57185;Médecins, radiologie, radiodiagnostic et imagerie médicale
DOCTEUR EDEL (SELARL);6 rue de l'Ours;Mulhouse;68200;6 rue de l'Ours Mulhouse 68200;Médecins, radiologie, radiodiagnostic et imagerie médicale
DOCTEUR ERNST PIERRE;2 rue de la Gare;Sélestat;67600;2 rue de la Gare Sélestat 67600;Médecins, radiologie, radiodiagnostic et imagerie médicale
DOCTEUR FUCHS-DUSSOURD ANNIE;2 rue de la Gare;Sélestat;67600;2 rue de la Gare Sélestat 67600;Médecins, radiologie, radiodiagnostic et imagerie médicale
DOCTEUR JEAN-JACQUES KIRCHGESNER;5 rue de la Gare;Forbach;57600;5 rue de la Gare Forbach 57600;Médecins, radiologie, radiodiagnostic et imagerie médicale
DOCTEUR MELINE;3 rue André Theuriet;Verdun;55100;3 rue André Theuriet Verdun 55100;Médecins, radiologie, radiodiagnostic et imagerie médicale
DOCTEUR MESLI DJAMEL;2 rue de la Gare;Sélestat;67600;2 rue de la Gare Sélestat 67600;Médecins, radiologie, radiodiagnostic et imagerie médicale
DOCTEURS BURGER TEISENTZ CRITESCU;113 avenue des Nations;Yutz;57970;113 avenue des Nations Yutz 57970;Médecins, radiologie, radiodiagnostic et imagerie médicale
DONZE-MAINGOT FRANCOISE;32 avenue Mal de Lattre de Tassigny;Verdun;55100;32 avenue Mal de Lattre de Tassigny Verdun 55100;Médecins, radiologie, radiodiagnostic et imagerie médicale
DR DUWIG;2 rue de la Gare;Mundolsheim;67450;2 rue de la Gare Mundolsheim 67450;Médecins, radiologie, radiodiagnostic et imagerie médicale
DRS BITSCH COTTET ALHOUSSEINI DICHE ET GOUYA;23 A rue Général de Gaulle;Hayange;57700;23 A rue Général de Gaulle Hayange 57700;Médecins, radiologie, radiodiagnostic et imagerie médicale
DRS DICHE FABERT BITSCH COTTET ALHOUSSEINI (SCM);17 place Turenne;Thionville;57100;17 place Turenne Thionville 57100;Médecins, radiologie, radiodiagnostic et imagerie médicale
DRS HECK MARTZLOFF PETER PERTER-WOERLY V;10 allee Jean-Pierre Carl;Molsheim;67120;10 allee Jean-Pierre Carl Molsheim 67120;Médecins, radiologie, radiodiagnostic et imagerie médicale
DURUPT BRUNO;125 rue St-Dizier;Nancy;54000;125 rue St-Dizier Nancy 54000;Médecins, radiologie, radiodiagnostic et imagerie médicale
EEG PICARD ET LAPOUJADE;3 avenue Jules Ferry;Verdun;55100;3 avenue Jules Ferry Verdun 55100;Médecins, radiologie, radiodiagnostic et imagerie médicale
EIMER JEAN-PAUL;15 rue de la Gare;Creutzwald;57150;15 rue de la Gare Creutzwald 57150;Médecins, radiologie, radiodiagnostic et imagerie médicale
ELEFTERIOU JEAN;3 rue de la Poste;Bitche;57230;3 rue de la Poste Bitche 57230;Médecins, radiologie, radiodiagnostic et imagerie médicale
ESPACE MEDICAL ILE DE CORSE;35 avenue du 20e Corps;Nancy;54000;35 avenue du 20e Corps Nancy 54000;Médecins, radiologie, radiodiagnostic et imagerie médicale
FALLER GEORGES;163 avenue d'Alsace;Colmar;68000;163 avenue d'Alsace Colmar 68000;Médecins, radiologie, radiodiagnostic et imagerie médicale
FIEVET FRÉDERIC;place Chanoine Collin;Clouange;57185;place Chanoine Collin Clouange 57185;Médecins, radiologie, radiodiagnostic et imagerie médicale
FILIPPI DE LA PALAVESA MARC;20 rue de Kingersheim;Wittenheim;68270;20 rue de Kingersheim Wittenheim 68270;Médecins, radiologie, radiodiagnostic et imagerie médicale
FILIPPI DE LA PALAVESA MARIE-MADELEINE;85 route du Polygone;Strasbourg;67100;85 route du Polygone Strasbourg 67100;Médecins, radiologie, radiodiagnostic et imagerie médicale
FREY RÉMY;13 avenue Raymond Poincaré;Sarrebourg;57400;13 avenue Raymond Poincaré Sarrebourg 57400;Médecins, radiologie, radiodiagnostic et imagerie médicale
FREY RÉMY;3 rue du Golf;Sarrebourg;57400;3 rue du Golf Sarrebourg 57400;Médecins, radiologie, radiodiagnostic et imagerie médicale
FRIEDMANN JEAN-MICHEL;27 place de l'Esplanade;Strasbourg;67000;27 place de l'Esplanade Strasbourg 67000;Médecins, radiologie, radiodiagnostic et imagerie médicale
GAGEY NICOLAS;125 rue St-Dizier;Nancy;54000;125 rue St-Dizier Nancy 54000;Médecins, radiologie, radiodiagnostic et imagerie médicale
GARNIER JEAN-PIERRE;20 rue Nationale;Sarreguemines;57200;20 rue Nationale Sarreguemines 57200;Médecins, radiologie, radiodiagnostic et imagerie médicale
GÉRARD ERIC;46 boulevard d'Anvers;Strasbourg;67000;46 boulevard d'Anvers Strasbourg 67000;Médecins, radiologie, radiodiagnostic et imagerie médicale
GREBICI MALIKA;avenue de Londres;Schiltigheim;67300;avenue de Londres Schiltigheim 67300;Médecins, radiologie, radiodiagnostic et imagerie médicale
GRIFFATON-TAILLANDIER CLAIRE;125 rue St-Dizier;Nancy;54000;125 rue St-Dizier Nancy 54000;Médecins, radiologie, radiodiagnostic et imagerie médicale
GROUPEMENT DES RADIOLOGUES DE L'IMAGERIE MAGNÉTIQUE (SCANNER ET IRM);24 rue des 3 Frontières;Illzach;68110;24 rue des 3 Frontières Illzach 68110;Médecins, radiologie, radiodiagnostic et imagerie médicale
GUTH STÉPHANE;85 route du Polygone;Strasbourg;67100;85 route du Polygone Strasbourg 67100;Médecins, radiologie, radiodiagnostic et imagerie médicale
HENNEQUIN LAURENT;125 rue St-Dizier;Nancy;54000;125 rue St-Dizier Nancy 54000;Médecins, radiologie, radiodiagnostic et imagerie médicale
HENRION DOMINIQUE;14 quai Colonel Renard;Epinal;88000;14 quai Colonel Renard Epinal 88000;Médecins, radiologie, radiodiagnostic et imagerie médicale
HOCQUARD CLAUDE;13 bis rue Blaise Pascal Za St Jacques;Maxéville;54320;13 bis rue Blaise Pascal Za St Jacques Maxéville 54320;Médecins, radiologie, radiodiagnostic et imagerie médicale
HODEZ CLAUDE;125 rue St-Dizier;Nancy;54000;125 rue St-Dizier Nancy 54000;Médecins, radiologie, radiodiagnostic et imagerie médicale
HUSSER-ITALIANO EVELYNE;163 avenue d'Alsace;Colmar;68000;163 avenue d'Alsace Colmar 68000;Médecins, radiologie, radiodiagnostic et imagerie médicale
HUSSON FRANÇOIS;30 rue Charles Vue;Lunéville;54300;30 rue Charles Vue Lunéville 54300;Médecins, radiologie, radiodiagnostic et imagerie médicale
I2M (SCM);24 rue du Commandant Chaudron;Toul;54200;24 rue du Commandant Chaudron Toul 54200;Médecins, radiologie, radiodiagnostic et imagerie médicale
IMED;3 rue de l'Etang;Thann;68800;3 rue de l'Etang Thann 68800;Médecins, radiologie, radiodiagnostic et imagerie médicale
IRM AMBROISE PARÉ;21 route de Guentrange;Thionville;57100;21 route de Guentrange Thionville 57100;Médecins, radiologie, radiodiagnostic et imagerie médicale
IRM INTERCLINIQUES;29 allee de la Robertsau;Strasbourg;67000;29 allee de la Robertsau Strasbourg 67000;Médecins, radiologie, radiodiagnostic et imagerie médicale
IRM SAINT FRANÇOIS;1 rue Colome;Haguenau;67500;1 rue Colome Haguenau 67500;Médecins, radiologie, radiodiagnostic et imagerie médicale
JACQUET RICHARD;125 rue St-Dizier;Nancy;54000;125 rue St-Dizier Nancy 54000;Médecins, radiologie, radiodiagnostic et imagerie médicale
JACQUILLARD ARMAND;13 avenue Raymond Poincaré;Sarrebourg;57400;13 avenue Raymond Poincaré Sarrebourg 57400;Médecins, radiologie, radiodiagnostic et imagerie médicale
JEANCOLAS BERNARD;5 rue Meurisse;Montigny lès metz;57950;5 rue Meurisse Montigny lès metz 57950;Médecins, radiologie, radiodiagnostic et imagerie médicale
KIRCHGESNER EMILE;13 avenue Raymond Poincaré;Sarrebourg;57400;13 avenue Raymond Poincaré Sarrebourg 57400;Médecins, radiologie, radiodiagnostic et imagerie médicale
KLEINCLAUS JEAN-PHILIPPE;85 route du Polygone;Strasbourg;67100;85 route du Polygone Strasbourg 67100;Médecins, radiologie, radiodiagnostic et imagerie médicale
KLINKERT ANTOINE;3 rue de l'Etang;Thann;68800;3 rue de l'Etang Thann 68800;Médecins, radiologie, radiodiagnostic et imagerie médicale
LINSTER ANNE;13 rue Raymond Poincaré;Bischwiller;67240;13 rue Raymond Poincaré Bischwiller 67240;Médecins, radiologie, radiodiagnostic et imagerie médicale
LINSTER LUC;13 rue Raymond Poincaré;Bischwiller;67240;13 rue Raymond Poincaré Bischwiller 67240;Médecins, radiologie, radiodiagnostic et imagerie médicale
LOUIS JEAN-PAUL;1 bis rue de la Tour Blanche;Lunéville;54300;1 bis rue de la Tour Blanche Lunéville 54300;Médecins, radiologie, radiodiagnostic et imagerie médicale
LUTRINGER BERNARD;3 rue de l'Etang;Thann;68800;3 rue de l'Etang Thann 68800;Médecins, radiologie, radiodiagnostic et imagerie médicale
MARTZLOFF PETER PETER WOERLY;10 allee Jean Pierre Carl;Molsheim;67120;10 allee Jean Pierre Carl Molsheim 67120;Médecins, radiologie, radiodiagnostic et imagerie médicale
MATTER DENIS;85 route du Polygone;Strasbourg;67100;85 route du Polygone Strasbourg 67100;Médecins, radiologie, radiodiagnostic et imagerie médicale
MAYOT F. - VALÉRI J. - SCHMIDT B. - BELHENNICHE M. - KOPF S. - GACONNET E. - GROSS-NANTY S.;4 place St-Louis;Metz;57000;4 place St-Louis Metz 57000;Médecins, radiologie, radiodiagnostic et imagerie médicale
MÉLINE OLIVIER;3 rue André Theuriet;Verdun;55100;3 rue André Theuriet Verdun 55100;Médecins, radiologie, radiodiagnostic et imagerie médicale
MEYER PIERRE;20 rue de Kingersheim;Wittenheim;68270;20 rue de Kingersheim Wittenheim 68270;Médecins, radiologie, radiodiagnostic et imagerie médicale
MILION VINCENT;18 rue Entre les 2 Portes;Epinal;88000;18 rue Entre les 2 Portes Epinal 88000;Médecins, radiologie, radiodiagnostic et imagerie médicale
MONSIEUR PHILIPPE VACELET;5 rue des Magasins;Toul;54200;5 rue des Magasins Toul 54200;Médecins, radiologie, radiodiagnostic et imagerie médicale
NETTER EDITH;125 rue St-Dizier;Nancy;54000;125 rue St-Dizier Nancy 54000;Médecins, radiologie, radiodiagnostic et imagerie médicale
NOEL LUDOVIC;20 rue de Kingersheim;Wittenheim;68270;20 rue de Kingersheim Wittenheim 68270;Médecins, radiologie, radiodiagnostic et imagerie médicale
OBRECHT ANNIE;48 rue de Phalsbourg;Sarre union;67260;48 rue de Phalsbourg Sarre union 67260;Médecins, radiologie, radiodiagnostic et imagerie médicale
ORTEU FLORENCE;avenue de Londres;Schiltigheim;67300;avenue de Londres Schiltigheim 67300;Médecins, radiologie, radiodiagnostic et imagerie médicale
OTT MARC;35 route d'Oberhausbergen;Strasbourg;67200;35 route d'Oberhausbergen Strasbourg 67200;Médecins, radiologie, radiodiagnostic et imagerie médicale
OTT MARC;35 route d'Oberhausbergen;Strasbourg;67200;35 route d'Oberhausbergen Strasbourg 67200;Médecins, radiologie, radiodiagnostic et imagerie médicale
PARISOT BERTRAND;22 place de l'Alma;Forbach;57600;22 place de l'Alma Forbach 57600;Médecins, radiologie, radiodiagnostic et imagerie médicale
IMAGERIE MEDICALE DU TRIANGLE;1 route de Behonne;Bar le duc;55000;1 route de Behonne Bar le duc 55000;Médecins, radiologie, radiodiagnostic et imagerie médicale
IMAGERIE MÉDICALE DU VIGNOBLE;53 C rue de Turckheim;Colmar;68000;53 C rue de Turckheim Colmar 68000;Médecins, radiologie, radiodiagnostic et imagerie médicale
IMAGERIE MEDICALE ST LOUIS SELARL;4 place St-Louis;Metz;57000;4 place St-Louis Metz 57000;Médecins, radiologie, radiodiagnostic et imagerie médicale
IMAGERIE MÉDICALE SUD ALSACE;7 rue Traversière;Cernay;68700;7 rue Traversière Cernay 68700;Médecins, radiologie, radiodiagnostic et imagerie médicale
IMAGERIE MÉDICALE DE CHAMPAGNE (SELARL D');4 rue Chaïm Soutine;Troyes;10000;4 rue Chaïm Soutine Troyes 10000;Médecins, radiologie, radiodiagnostic et imagerie médicale
IMAGERIE MÉDICALE POINT SANTÉ;10 rue de la Charité;Langres;52200;10 rue de la Charité Langres 52200;Médecins, radiologie, radiodiagnostic et imagerie médicale
IMAGERIE MÉDICALE POINT SANTÉ;30 route de Dijon;Saints geosmes;52200;30 route de Dijon Saints geosmes 52200;Médecins, radiologie, radiodiagnostic et imagerie médicale
IMAGERIE MÉDICALE ST RÉMI;22 rue Simon;Reims;51100;22 rue Simon Reims 51100;Médecins, radiologie, radiodiagnostic et imagerie médicale
IMAGERIE MÉDICALE;31 avenue Albert de Briey;Briey;54150;31 avenue Albert de Briey Briey 54150;Médecins, radiologie, radiodiagnostic et imagerie médicale
IMAGERIE MÉDICALE DE CREUTZWALD;15 rue de la Gare;Creutzwald;57150;15 rue de la Gare Creutzwald 57150;Médecins, radiologie, radiodiagnostic et imagerie médicale
IMAGERIE MÉDICALE DU V (GIE);2 rue Charles Simon;Vitry le françois;51300;2 rue Charles Simon Vitry le françois 51300;
IMAGERIE MÉDICALE (GIE);2 rue Jeanne d'Arc;Chaumont;52000;2 rue Jeanne d'Arc Chaumont 52000;
IMAGERIE MÉDICALE DE CHAMPAGNE (SELARL);2 rue Gaston Cheq;Bar sur aube;10200;2 rue Gaston Cheq Bar sur aube 10200;
ASSOCIATION D'IMAGERIE MÉDICALE;65 rue Raymond Poincaré Cab Des Orchidées Radiologie;;;65 rue Raymond Poincaré Cab Des Orchidées Radiologie  ;Médecins, radiologie, radiodiagnostic et imagerie médicale
CABINET D'IMAGERIE MÉDICALE DE SEDAN;12 place d'Alsace-Lorraine;Sedan;08200;12 place d'Alsace-Lorraine Sedan 08200;Médecins, radiologie, radiodiagnostic et imagerie médicale
CENTRE D'IMAGERIE MÉDICALE;40 faubourg de Vitry le Brulé;Vitry le françois;51300;40 faubourg de Vitry le Brulé Vitry le françois 51300;Médecins, radiologie, radiodiagnostic et imagerie médicale
CENTRE D'IMAGERIE MÉDICALE DES HALLES CHAMPLON - SCHAFFNER - ZERROUGUI;18 rue des Halles;Chaumont;52000;18 rue des Halles Chaumont 52000;Médecins, radiologie, radiodiagnostic et imagerie médicale
CENTRE D'IMAGERIE MÉDICALE DES TILLEULS;122 avenue du Gén Charles de Gaulle;Châlons en champagne;51000;122 avenue du Gén Charles de Gaulle Châlons en champagne 51000;Médecins, radiologie, radiodiagnostic et imagerie médicale
CENTRE D'IMAGERIE MÉDICALE DU TRIANGLE;60 avenue de la République;Saint dizier;52100;60 avenue de la République Saint dizier 52100;Médecins, radiologie, radiodiagnostic et imagerie médicale
CENTRE D'IMAGERIE MÉDICALE LUTON;2 rue de Neufchatel;Reims;51100;2 rue de Neufchatel Reims 51100;Médecins, radiologie, radiodiagnostic et imagerie médicale
AMIM LAUSECKER RENÉ - PRACHT DENIS ET STOICA OMERINA (ASSOCIATION MULHOUSIENNE D'IMAGERIE MÉDICALE);6 rue de la Tuilerie;Mulhouse;68200;6 rue de la Tuilerie Mulhouse 68200;Médecins, radiologie, radiodiagnostic et imagerie médicale
ASSOCIATION MULHOUSIENNE D'IMAGERIE MÉDICALE (AMIM);28 rue de Mulhouse;Riedisheim;68400;28 rue de Mulhouse Riedisheim 68400;Médecins, radiologie, radiodiagnostic et imagerie médicale
CABINET D'IMAGERIE MÉDICALE BALTIMORE DOCTEURS WILM CARLO ET SIEDEL JEAN-MARIE;49 rue du Faubourg National;Strasbourg;67000;49 rue du Faubourg National Strasbourg 67000;Médecins, radiologie, radiodiagnostic et imagerie médicale
CABINET D'IMAGERIE MÉDICALE DE LA MODER;2 rue de la Moder;Haguenau;67500;2 rue de la Moder Haguenau 67500;Médecins, radiologie, radiodiagnostic et imagerie médicale
CABINET D'IMAGERIE MÉDICALE DE LA MODER;6 rue des Prémontrés;Haguenau;67500;6 rue des Prémontrés Haguenau 67500;Médecins, radiologie, radiodiagnostic et imagerie médicale
CABINET DE RADIOLOGIE ET IMAGERIE MEDICALE;125 rue St-Dizier;Nancy;54000;125 rue St-Dizier Nancy 54000;Médecins, radiologie, radiodiagnostic et imagerie médicale
CABINET RADIOLOGIE ET IMAGERIE MÉDICALE DES DOCTEURS BOF - RIO-PROST - SCHLITTER;8 rue de la Commanderie;Nancy;54000;8 rue de la Commanderie Nancy 54000;Médecins, radiologie, radiodiagnostic et imagerie médicale
CENTRE D'IMAGERIE MÉDICALE (PAYAFAR ALIREZA - RENKES ISABELLE);5 rue Meurisse;Montigny lès metz;57950;5 rue Meurisse Montigny lès metz 57950;Médecins, radiologie, radiodiagnostic et imagerie médicale
CENTRE D'IMAGERIE MÉDICALE DE L'ELYSÉE;5 rue de la Gare;Forbach;57600;5 rue de la Gare Forbach 57600;Médecins, radiologie, radiodiagnostic et imagerie médicale
CENTRE D'IMAGERIE MÉDICALE DE L'ELYSÉE (C.I.M.E.);20 rue Nationale;Sarreguemines;57200;20 rue Nationale Sarreguemines 57200;Médecins, radiologie, radiodiagnostic et imagerie médicale
CPIM (CABINET PLURIDISCIPLINAIRE D'IMAGERIE MÉDICALE);18 rue du 22 Novembre;Strasbourg;67000;18 rue du 22 Novembre Strasbourg 67000;Médecins, radiologie, radiodiagnostic et imagerie médicale
MIM GROUPE D'IMAGERIE MÉDICALE - LA MAISON ROUGE (DRS BUCH CARTIER LECHNER-GOYAULT MANGOLD SCHMITT WAGNER);2 route Burkel;Illkirch graffenstaden;67400;2 route Burkel Illkirch graffenstaden 67400;Médecins, radiologie, radiodiagnostic et imagerie médicale
RADIOLOGIE IMAGERIE MÉDICALE BARTHOLDI;163 avenue d'Alsace;Colmar;68000;163 avenue d'Alsace Colmar 68000;Médecins, radiologie, radiodiagnostic et imagerie médicale
S.I.M.S.E (SOCIÉTÉ D'IMAGERIE MÉDICALE STRASBOURG EUROPE);2 place de l'Eglise;Schiltigheim;67300;2 place de l'Eglise Schiltigheim 67300;Médecins, radiologie, radiodiagnostic et imagerie médicale
S.I.M.S.E (SOCIÉTÉ D'IMAGERIE MÉDICALE STRASBOURG EUROPE);place Kléber;Strasbourg;67000;place Kléber Strasbourg 67000;Médecins, radiologie, radiodiagnostic et imagerie médicale
SOCIÉTÉ D'IMAGERIE MÉDICALE STRASBOURG EUROPE;place de l'Eglise;Schiltigheim;67300;place de l'Eglise Schiltigheim 67300;Médecins, radiologie, radiodiagnostic et imagerie médicale
CENTRE IMAGERIE MÉDICALE SARRE UNION;48 rue de Phalsbourg;Sarre union;67260;48 rue de Phalsbourg Sarre union 67260;
CENTRE D'IMAGERIE MEDICALE;40 rue de Vitry;Brusson;51300;40 rue de Vitry Brusson 51300;
D'IMAGERIE MEDICALE DE CHAMPAGNE (SELARL);6 rue Eugène Belgrand;Troyes;10000;6 rue Eugène Belgrand Troyes 10000;
CENTRE D'IMAGERIE MÉDICALE;4 rue Chaïm Soutine;Troyes;10000;4 rue Chaïm Soutine Troyes 10000;
ACHAB (SELARL) SELARL-IMAGERIE-MEDICALE-CHAM;4 rue Chaïm Soutine;Troyes;10000;4 rue Chaïm Soutine Troyes 10000;
