Nom;Adresse;Commune;CP;concat;catégorie d'activité
SALLENAVE MARIE-FRANCE;95 route de Fronton;Aucamville;31140;95 route de Fronton Aucamville 31140;Médecins, radiologie, radiodiagnostic et imagerie médicale
IMAGERIE MÉDICALE DE L'OUEST AUDOIS;voie Romaine;Carcassonne;11000;voie Romaine Carcassonne 11000;
SERNY JEAN-FRANÇOIS;75 boulevard Deltour;Toulouse;31500;75 boulevard Deltour Toulouse 31500;Médecins, radiologie, radiodiagnostic et imagerie médicale
SFALLI YVES;24 boulevard Gallieni;Vic en bigorre;65500;24 boulevard Gallieni Vic en bigorre 65500;Médecins, radiologie, radiodiagnostic et imagerie médicale
SHARIF KAMBIZ;3 allee Corbière;Castres;81100;3 allee Corbière Castres 81100;Médecins, radiologie, radiodiagnostic et imagerie médicale
TIVOLI DOME IMAGERIE (TDI);1 rue du Redondal;Mazamet;81200;1 rue du Redondal Mazamet 81200;Médecins, radiologie, radiodiagnostic et imagerie médicale
ALMES CHRISTIAN;430 rue James Watt;Perpignan;66100;430 rue James Watt Perpignan 66100;Médecins, radiologie, radiodiagnostic et imagerie médicale
BENAZECH PAUL;10 rue des Oliviers;Juvignac;34990;10 rue des Oliviers Juvignac 34990;Médecins, radiologie, radiodiagnostic et imagerie médicale
BENGANA HAMID;10 boulevard Victor Hugo;Montpellier;34000;10 boulevard Victor Hugo Montpellier 34000;Médecins, radiologie, radiodiagnostic et imagerie médicale
BENGANA HAMID;avenue du Colonel André Pavelet;Montpellier;34000;avenue du Colonel André Pavelet Montpellier 34000;Médecins, radiologie, radiodiagnostic et imagerie médicale
BLANC THIERRY;36 avenue Bouisson Bertrand;Montpellier;34000;36 avenue Bouisson Bertrand Montpellier 34000;Médecins, radiologie, radiodiagnostic et imagerie médicale
BOSSOT PAUL;57 avenue du Pic St-Loup;Saint gély du fesc;34980;57 avenue du Pic St-Loup Saint gély du fesc 34980;Médecins, radiologie, radiodiagnostic et imagerie médicale
BOURREL PIERRE;60 rue Louis Mouillard;Perpignan;66000;60 rue Louis Mouillard Perpignan 66000;Médecins, radiologie, radiodiagnostic et imagerie médicale
BROCHE MICHEL;route de Nîmes;Saint gilles;30800;route de Nîmes Saint gilles 30800;Médecins, radiologie, radiodiagnostic et imagerie médicale
BRUN VINCENT;77 route de Rochelongue;Agde;34300;77 route de Rochelongue Agde 34300;Médecins, radiologie, radiodiagnostic et imagerie médicale
CABINET DE RADIOLOGIE DES DOCTEURS EINHORN MONIQUE ET TOUBIN ANNE;127 rue Maurice Béjart Pôle Santé Parc 2000;;34080;127 rue Maurice Béjart Pôle Santé Parc 2000  34080;Médecins, radiologie, radiodiagnostic et imagerie médicale
CABINET DE RADIOLOGIE DRS ABRIC-BALZAN GAUGUE-DE BRUNANCHON-MAYO-VERDEIL;1 rue Rouget de Lisle;Nîmes;30000;1 rue Rouget de Lisle Nîmes 30000;Médecins, radiologie, radiodiagnostic et imagerie médicale
CABINET RADIO ECHO OBSTÉTRIC DOPPLER MAMMO NUM SÉNO SCANNER IRM PASQUAL J RESPAUD PASQUAL A MÉRIGNY;73 boulevard Aristide Briand;Perpignan;66100;73 boulevard Aristide Briand Perpignan 66100;Médecins, radiologie, radiodiagnostic et imagerie médicale
CABINET RADIOLOGIE JEANNE D'ARC;1 rue Jeanne d'Arc;Nîmes;30000;1 rue Jeanne d'Arc Nîmes 30000;Médecins, radiologie, radiodiagnostic et imagerie médicale
CALVET CHRISTOPHE;10 boulevard Victor Hugo;Montpellier;34000;10 boulevard Victor Hugo Montpellier 34000;Médecins, radiologie, radiodiagnostic et imagerie médicale
CASSAN JACQUES;46 avenue Enseigne Albertini;Béziers;34500;46 avenue Enseigne Albertini Béziers 34500;Médecins, radiologie, radiodiagnostic et imagerie médicale
CASTAN FRANÇOISE;11 avenue de la Galine;Castelnau le lez;34170;11 avenue de la Galine Castelnau le lez 34170;Médecins, radiologie, radiodiagnostic et imagerie médicale
CATANÈSE FRANCK;1 rue Jeanne d'Arc;Nîmes;30000;1 rue Jeanne d'Arc Nîmes 30000;Médecins, radiologie, radiodiagnostic et imagerie médicale
CENTRE DE RADIOLOGIE;3 rue du Docteur Jean Payri;Saint laurent de la salanque;66250;3 rue du Docteur Jean Payri Saint laurent de la salanque 66250;Médecins, radiologie, radiodiagnostic et imagerie médicale
CENTRE DE RADIOLOGIE;430 rue James Watt Tecnosud Presport;Perpignan;66100;430 rue James Watt Tecnosud Presport Perpignan 66100;Médecins, radiologie, radiodiagnostic et imagerie médicale
CENTRE DE RADIOLOGIE ALBASCAN;45 avenue Carnot;Alès;30100;45 avenue Carnot Alès 30100;Médecins, radiologie, radiodiagnostic et imagerie médicale
CENTRE DE RADIOLOGIE D'ERR;Carrer de Cal Joanet;Err;66800;Carrer de Cal Joanet Err 66800;Médecins, radiologie, radiodiagnostic et imagerie médicale
CENTRE DE RADIOLOGIE DOCTEUR ANNE-MARIE BAIXAS (RADIOPOLE);9 avenue Général Guillaut;Thuir;66300;9 avenue Général Guillaut Thuir 66300;Médecins, radiologie, radiodiagnostic et imagerie médicale
CENTRE DE RADIOLOGIE DU RABELAIS;5 avenue du Dr Jean-Marie Fabre;Béziers;34500;5 avenue du Dr Jean-Marie Fabre Béziers 34500;Médecins, radiologie, radiodiagnostic et imagerie médicale
CENTRE DE RADIOLOGIE ET D'ECHOGRAPHIE TIVOLI DÔME;3 boulevard du Commandant Roumens;Carcassonne;11000;3 boulevard du Commandant Roumens Carcassonne 11000;Médecins, radiologie, radiodiagnostic et imagerie médicale
CENTRE DE RADIOLOGIE ET D'ECHOGRAPHIE DES DOCTEURS KESSLER BENIS RAGU BENNANI BENAZECH GASNER;25 rue de Clementville;Montpellier;34000;25 rue de Clementville Montpellier 34000;Médecins, radiologie, radiodiagnostic et imagerie médicale
CENTRE DE RADIOLOGIE ET D'ECHOGRAPHIE DES DOCTEURS LESTIENNE HERVÉ BAIXAS PIERRE ET BERGER VINCENT;20 rue de la Condamine;Sommières;30250;20 rue de la Condamine Sommières 30250;Médecins, radiologie, radiodiagnostic et imagerie médicale
CENTRE DE RADIOLOGIE ET D'ECHOGRAPHIE DU DOCTEUR CAIZERGUES;2 place Joseph Boudouresques;Ganges;34190;2 place Joseph Boudouresques Ganges 34190;Médecins, radiologie, radiodiagnostic et imagerie médicale
CENTRE DE RADIOLOGIE MAMMOGRAPHIE ECHOGRAPHIE DOPPLER SCANNER DES DOCTEURS BOBO BARDON ET VICENS;21 avenue du Festival;Prades;66500;21 avenue du Festival Prades 66500;Médecins, radiologie, radiodiagnostic et imagerie médicale
CENTRE DE RADIOLOGIE SCANNER IRM;chemin du Mas Anglade;Cabestany;66330;chemin du Mas Anglade Cabestany 66330;Médecins, radiologie, radiodiagnostic et imagerie médicale
CENTRE IMAGERIE DU LANGUEDOC;26 rue Ernest Cognacq;Narbonne;11100;26 rue Ernest Cognacq Narbonne 11100;Médecins, radiologie, radiodiagnostic et imagerie médicale
CENTRE MÉDICO-CHIRURGICAL MARVEJOLS CMCM;chemin Jean Fontugne Quartier De La Terrisse;;48100;chemin Jean Fontugne Quartier De La Terrisse  48100;Médecins, radiologie, radiodiagnostic et imagerie médicale
CENTRE RADIO ET PHYSIOTHÉRAPIE;30 rue le Trident;Lunel;34400;30 rue le Trident Lunel 34400;Médecins, radiologie, radiodiagnostic et imagerie médicale
CENTRE RADIOLOGIE VALMÉDICA;221 rue Claude Nicolas Ledoux;Nîmes;30900;221 rue Claude Nicolas Ledoux Nîmes 30900;Médecins, radiologie, radiodiagnostic et imagerie médicale
CENTRE RADIOLOGIETIVOLI DÔME IMAGERIE (TDI);1 rue du Docteur Roueylou;Quillan;11500;1 rue du Docteur Roueylou Quillan 11500;Médecins, radiologie, radiodiagnostic et imagerie médicale
CHANUT ALAIN;57 avenue du Pic St-Loup;Saint gély du fesc;34980;57 avenue du Pic St-Loup Saint gély du fesc 34980;Médecins, radiologie, radiodiagnostic et imagerie médicale
CHARRA LAURENT;10 boulevard Victor Hugo;Montpellier;34000;10 boulevard Victor Hugo Montpellier 34000;Médecins, radiologie, radiodiagnostic et imagerie médicale
CHARRON ISABELLE;route de Nîmes;Saint gilles;30800;route de Nîmes Saint gilles 30800;Médecins, radiologie, radiodiagnostic et imagerie médicale
CLAIRET LAURENT;65 route de Laverune;Montpellier;34070;65 route de Laverune Montpellier 34070;Médecins, radiologie, radiodiagnostic et imagerie médicale
CORADIX;avenue d Argeles Sur Mer;Perpignan;66000;avenue d Argeles Sur Mer Perpignan 66000;Médecins, radiologie, radiodiagnostic et imagerie médicale
CORADIX;rue du Docteur Jean Payri;Saint laurent de la salanque;66250;rue du Docteur Jean Payri Saint laurent de la salanque 66250;
COSSU SIMONE;125 rue Henri Deslandres;Béziers;34500;125 rue Henri Deslandres Béziers 34500;Médecins, radiologie, radiodiagnostic et imagerie médicale
COSSU SIMONE;400 rue Fernand Arvieu;Béziers;34500;400 rue Fernand Arvieu Béziers 34500;Médecins, radiologie, radiodiagnostic et imagerie médicale
COTTIN THIERRY;60 rue Louis Mouillard;Perpignan;66000;60 rue Louis Mouillard Perpignan 66000;Médecins, radiologie, radiodiagnostic et imagerie médicale
CTRE D'IMAGERIE MÉD DE PETITE CAMARGUE;458 avenue du 19 Mars 1962;Saint gilles;30800;458 avenue du 19 Mars 1962 Saint gilles 30800;
CUENANT-CLAUZEL ANNE;10 boulevard Victor Hugo;Montpellier;34000;10 boulevard Victor Hugo Montpellier 34000;Médecins, radiologie, radiodiagnostic et imagerie médicale
CUENANT-CLAUZEL ANNE;43 rue du Faubourg St-Jaumes;Montpellier;34000;43 rue du Faubourg St-Jaumes Montpellier 34000;Médecins, radiologie, radiodiagnostic et imagerie médicale
DACLIN PIERRE-YVES;77 route de Rochelongue;Agde;34300;77 route de Rochelongue Agde 34300;Médecins, radiologie, radiodiagnostic et imagerie médicale
DECOUX ERIC;50 rue Emile Combes;Castelnau le lez;34170;50 rue Emile Combes Castelnau le lez 34170;Médecins, radiologie, radiodiagnostic et imagerie médicale
DELPECH (MÉDECIN) JACQUES;88 rue Trente Deuxième;Montpellier;34000;88 rue Trente Deuxième Montpellier 34000;Médecins, radiologie, radiodiagnostic et imagerie médicale
DUPUY-MEURAT FRANÇOISE;325 avenue Charles de Gaulle;Les angles;30133;325 avenue Charles de Gaulle Les angles 30133;Médecins, radiologie, radiodiagnostic et imagerie médicale
DUROUCHOUX OLIVIER;85 avenue Pasteur;Villeneuve lès avignon;30400;85 avenue Pasteur Villeneuve lès avignon 30400;Médecins, radiologie, radiodiagnostic et imagerie médicale
FABRE-DEMARD NATHALIE;10 boulevard Victor Hugo;Montpellier;34000;10 boulevard Victor Hugo Montpellier 34000;Médecins, radiologie, radiodiagnostic et imagerie médicale
FERRAN JEAN-LOUIS;36 avenue Bouisson Bertrand;Montpellier;34000;36 avenue Bouisson Bertrand Montpellier 34000;Médecins, radiologie, radiodiagnostic et imagerie médicale
FILHASTRE MAUD;10 boulevard Victor Hugo;Montpellier;34000;10 boulevard Victor Hugo Montpellier 34000;Médecins, radiologie, radiodiagnostic et imagerie médicale
FLUNKER SABRINA;36 avenue Bouisson Bertrand;Montpellier;34000;36 avenue Bouisson Bertrand Montpellier 34000;Médecins, radiologie, radiodiagnostic et imagerie médicale
FOURNOL MAUD;77 route de Rochelongue;Agde;34300;77 route de Rochelongue Agde 34300;Médecins, radiologie, radiodiagnostic et imagerie médicale
FRAGA JEAN;avenue du Colonel André Pavelet;Montpellier;34000;avenue du Colonel André Pavelet Montpellier 34000;Médecins, radiologie, radiodiagnostic et imagerie médicale
GOYHENECHE ARMAND;8 rue Sant Pluget;Céret;66400;8 rue Sant Pluget Céret 66400;Médecins, radiologie, radiodiagnostic et imagerie médicale
GUILLON RÉMY;20 rue de la Condamine;Sommières;30250;20 rue de la Condamine Sommières 30250;Médecins, radiologie, radiodiagnostic et imagerie médicale
HAMM VIVIEN;57 avenue du Pic St-Loup;Saint gély du fesc;34980;57 avenue du Pic St-Loup Saint gély du fesc 34980;Médecins, radiologie, radiodiagnostic et imagerie médicale
HUE JEAN-CLAUDE;avenue du Colonel André Pavelet;Montpellier;34000;avenue du Colonel André Pavelet Montpellier 34000;Médecins, radiologie, radiodiagnostic et imagerie médicale
IMADIAG;45 avenue Carnot;Alès;30100;45 avenue Carnot Alès 30100;Médecins, radiologie, radiodiagnostic et imagerie médicale
IMAGERIE CANCÉROLOGIE MÉ;avenue de l'Agau;Lattes;34970;avenue de l'Agau Lattes 34970;Médecins, radiologie, radiodiagnostic et imagerie médicale
IMAGERIE CANCÉROLOGIE MÉDICALE (SCM);10 boulevard Victor Hugo;Montpellier;34000;10 boulevard Victor Hugo Montpellier 34000;Médecins, radiologie, radiodiagnostic et imagerie médicale
IMAGERIE CANCEROLOGIE MÉDICALES (SCM);avenue du Colonel André Pavelet;Montpellier;34000;avenue du Colonel André Pavelet Montpellier 34000;Médecins, radiologie, radiodiagnostic et imagerie médicale
IMAGERIE RADIOTHERAPIE DU GD MONTPELLIER;25 rue de Clementville;Montpellier;34000;25 rue de Clementville Montpellier 34000;Médecins, radiologie, radiodiagnostic et imagerie médicale
IMMED;346 avenue de Bir Hakeim;Nîmes;30000;346 avenue de Bir Hakeim Nîmes 30000;Médecins, radiologie, radiodiagnostic et imagerie médicale
JAILLOT PIERRE;60 rue Louis Mouillard;Perpignan;66000;60 rue Louis Mouillard Perpignan 66000;Médecins, radiologie, radiodiagnostic et imagerie médicale
JAILLOT PIERRE;60 rue Louis Mouillard;Perpignan;66000;60 rue Louis Mouillard Perpignan 66000;Médecins, radiologie, radiodiagnostic et imagerie médicale
JAILLOT PIERRE;chemin de Torremilla;Perpignan;66000;chemin de Torremilla Perpignan 66000;Médecins, radiologie, radiodiagnostic et imagerie médicale
KOUTSANDREOU ALEXANDRE;1 rue des Rolliers;Caveirac;30820;1 rue des Rolliers Caveirac 30820;Médecins, radiologie, radiodiagnostic et imagerie médicale
KOUTSANDREOU ALEXANDRE;29 route de Camargue;Bernis;30620;29 route de Camargue Bernis 30620;Médecins, radiologie, radiodiagnostic et imagerie médicale
LEVY PHILIPPE;10 boulevard Victor Hugo;Montpellier;34000;10 boulevard Victor Hugo Montpellier 34000;Médecins, radiologie, radiodiagnostic et imagerie médicale
LOPEZ ELYSÉ;10 boulevard Victor Hugo;Montpellier;34000;10 boulevard Victor Hugo Montpellier 34000;Médecins, radiologie, radiodiagnostic et imagerie médicale
LOPEZ PAUL;avenue du Colonel André Pavelet;Montpellier;34000;avenue du Colonel André Pavelet Montpellier 34000;Médecins, radiologie, radiodiagnostic et imagerie médicale
LUST STÉPHANE;36 avenue Bouisson Bertrand;Montpellier;34000;36 avenue Bouisson Bertrand Montpellier 34000;Médecins, radiologie, radiodiagnostic et imagerie médicale
MAGNESCAN;80 rue Pascal Marie Agasse;Perpignan;66000;80 rue Pascal Marie Agasse Perpignan 66000;Médecins, radiologie, radiodiagnostic et imagerie médicale
MANDUEL RADIOLOGIE;chemin de St-Paul;Manduel;30129;chemin de St-Paul Manduel 30129;Médecins, radiologie, radiodiagnostic et imagerie médicale
MANDUEL RADIOLOGIE;rue Weber;Nîmes;30900;rue Weber Nîmes 30900;Médecins, radiologie, radiodiagnostic et imagerie médicale
MARQUESUZAA HÉLÈNE;route de Nîmes;Saint gilles;30800;route de Nîmes Saint gilles 30800;Médecins, radiologie, radiodiagnostic et imagerie médicale
MENY RAPHAEL;77 route de Rochelongue;Agde;34300;77 route de Rochelongue Agde 34300;Médecins, radiologie, radiodiagnostic et imagerie médicale
MONSIEUR GILLES PALEIRAC;52 route de St-Georges d'Orques;Juvignac;34990;52 route de St-Georges d'Orques Juvignac 34990;Médecins, radiologie, radiodiagnostic et imagerie médicale
MOUALLEM ALEXANDRE;chemin Jean Fontugne Quartier De La Terrisse;;48100;chemin Jean Fontugne Quartier De La Terrisse  48100;Médecins, radiologie, radiodiagnostic et imagerie médicale
NARBOSCAN;8 avenue du Maréchal Juin Ens Polyclinique;;11100;8 avenue du Maréchal Juin Ens Polyclinique  11100;Médecins, radiologie, radiodiagnostic et imagerie médicale
NÉMOSCAM (SCM);avenue Kennedy;Nîmes;30900;avenue Kennedy Nîmes 30900;Médecins, radiologie, radiodiagnostic et imagerie médicale
NÉMOSCAM (SCM);allee des Pins Hôpital Privé Franciscaines;;30000;allee des Pins Hôpital Privé Franciscaines  30000;Médecins, radiologie, radiodiagnostic et imagerie médicale
NÉMOSCAM (SCM);480 avenue St-André de Codols Extrémité;;30000;480 avenue St-André de Codols Extrémité  30000;Médecins, radiologie, radiodiagnostic et imagerie médicale
NEMOSCAN (IRM DU MÉRIDIEN);480 avenue St-André de Codols;Nîmes;30000;480 avenue St-André de Codols Nîmes 30000;Médecins, radiologie, radiodiagnostic et imagerie médicale
NEPHTALI JEAN-PIERRE;chemin Jean Fontugne Quartier De La Terrisse;;48100;chemin Jean Fontugne Quartier De La Terrisse  48100;Médecins, radiologie, radiodiagnostic et imagerie médicale
NEVESNY GÉRARD;avenue de l'Agau Le Vivaldi;Lattes;34970;avenue de l'Agau Le Vivaldi Lattes 34970;Médecins, radiologie, radiodiagnostic et imagerie médicale
NEVESNY GÉRARD;avenue du Colonel André Pavelet;Montpellier;34000;avenue du Colonel André Pavelet Montpellier 34000;Médecins, radiologie, radiodiagnostic et imagerie médicale
NOUVEAU POLE IMAGE BOUJAN;20 rue de la Margeride;Boujan sur libron;34760;20 rue de la Margeride Boujan sur libron 34760;Médecins, radiologie, radiodiagnostic et imagerie médicale
NOUVEL MONIQUE;325 avenue Charles de Gaulle;Les angles;30133;325 avenue Charles de Gaulle Les angles 30133;Médecins, radiologie, radiodiagnostic et imagerie médicale
PARMENTIER JEAN-MARC;1 rue Jeanne d'Arc;Nîmes;30000;1 rue Jeanne d'Arc Nîmes 30000;Médecins, radiologie, radiodiagnostic et imagerie médicale
PASQUAL-FONTAINE ANNICK;73 boulevard Aristide Briand;Perpignan;66100;73 boulevard Aristide Briand Perpignan 66100;Médecins, radiologie, radiodiagnostic et imagerie médicale
PEY FRANÇOIS;8 rue Sant Pluget;Céret;66400;8 rue Sant Pluget Céret 66400;Médecins, radiologie, radiodiagnostic et imagerie médicale
PICON ELISABETH;57 avenue du Pic St-Loup;Saint gély du fesc;34980;57 avenue du Pic St-Loup Saint gély du fesc 34980;Médecins, radiologie, radiodiagnostic et imagerie médicale
RABAH YACINE;77 route de Rochelongue;Agde;34300;77 route de Rochelongue Agde 34300;Médecins, radiologie, radiodiagnostic et imagerie médicale
RADIOLOGIE I SERIS (SCP);1 avenue Ronzier Joly;Clermont l'hérault;34800;1 avenue Ronzier Joly Clermont l'hérault 34800;Médecins, radiologie, radiodiagnostic et imagerie médicale
SAINT GÉLY RADIOLOGIE (SCM);70 allee de Lauzard;Saint gély du fesc;34980;70 allee de Lauzard Saint gély du fesc 34980;Médecins, radiologie, radiodiagnostic et imagerie médicale
SAINT GÉLY RADIOLOGIE (SCM);57 avenue du Pic St-Loup;Saint gély du fesc;34980;57 avenue du Pic St-Loup Saint gély du fesc 34980;Médecins, radiologie, radiodiagnostic et imagerie médicale
SARROUY PHILIPPE;8 rue Sant Pluget;Céret;66400;8 rue Sant Pluget Céret 66400;Médecins, radiologie, radiodiagnostic et imagerie médicale
SAUCEROTTE HENRI;77 route de Rochelongue;Agde;34300;77 route de Rochelongue Agde 34300;Médecins, radiologie, radiodiagnostic et imagerie médicale
SCANNER DE PRADES;25 avenue Louis Prat;Prades;66500;25 avenue Louis Prat Prades 66500;Médecins, radiologie, radiodiagnostic et imagerie médicale
SCANNER DES PAYS DE THAU;3 rue des Rosiers;Agde;34300;3 rue des Rosiers Agde 34300;Médecins, radiologie, radiodiagnostic et imagerie médicale
SCHLATTER THOMAS;8 rue Sant Pluget;Céret;66400;8 rue Sant Pluget Céret 66400;Médecins, radiologie, radiodiagnostic et imagerie médicale
SCM CIL (CENTRE D'IMAGERIE DU LANGUEDOC);65 avenue Wilson;Lézignan corbières;11200;65 avenue Wilson Lézignan corbières 11200;Médecins, radiologie, radiodiagnostic et imagerie médicale
S.C.M DES RADIOLOGUES DU BIT;rue de la Margeride;Boujan sur libron;34760;rue de la Margeride Boujan sur libron 34760;Médecins, radiologie, radiodiagnostic et imagerie médicale
SELAS THAU IMAGERIE MEDIC;441 avenue du Père Soulas;Montpellier;34090;441 avenue du Père Soulas Montpellier 34090;Médecins, radiologie, radiodiagnostic et imagerie médicale
SERVICE RADIO SCAN CLINIQUE PASTEUR;3 rue Pasteur;Pézenas;34120;3 rue Pasteur Pézenas 34120;Médecins, radiologie, radiodiagnostic et imagerie médicale
SOLIGNAC DIDIER;10 boulevard Victor Hugo;Montpellier;34000;10 boulevard Victor Hugo Montpellier 34000;Médecins, radiologie, radiodiagnostic et imagerie médicale
TAVERA GÉRARD;avenue de l'Agau;Lattes;34970;avenue de l'Agau Lattes 34970;Médecins, radiologie, radiodiagnostic et imagerie médicale
TEISSIER JEAN-MARC;221 rue Claude Nicolas Ledoux Résid Valmédica;;;221 rue Claude Nicolas Ledoux Résid Valmédica  ;Médecins, radiologie, radiodiagnostic et imagerie médicale
TERQUEUX ERIC;avenue de l'Agau Le Vivaldi;Lattes;34970;avenue de l'Agau Le Vivaldi Lattes 34970;Médecins, radiologie, radiodiagnostic et imagerie médicale
TIVOLI DÔME IMAGERIE;17 rue Madeleine Brès;Limoux;11300;17 rue Madeleine Brès Limoux 11300;Médecins, radiologie, radiodiagnostic et imagerie médicale
TIXEDOR NICOLAS;60 rue Louis Mouillard;Perpignan;66000;60 rue Louis Mouillard Perpignan 66000;Médecins, radiologie, radiodiagnostic et imagerie médicale
VALMORIN JACQUELINE;10 boulevard Victor Hugo;Montpellier;34000;10 boulevard Victor Hugo Montpellier 34000;Médecins, radiologie, radiodiagnostic et imagerie médicale
VAN DEN BROECK JOËL;route de Nîmes;Saint gilles;30800;route de Nîmes Saint gilles 30800;Médecins, radiologie, radiodiagnostic et imagerie médicale
VENZAC GÉRAUD;zone d activite economique le Pont 7 Ancienne Route De Lodève;;;zone d activite economique le Pont 7 Ancienne Route De Lodève  ;Médecins, radiologie, radiodiagnostic et imagerie médicale
VIDAL HENRI;4 route de St-Pons;Bédarieux;34600;4 route de St-Pons Bédarieux 34600;Médecins, radiologie, radiodiagnostic et imagerie médicale
ALAZARD PHILIPPE;22 rue Beteille;Rodez;12000;22 rue Beteille Rodez 12000;Médecins, radiologie, radiodiagnostic et imagerie médicale
ANDRÉ PHILIPPE;22 rue Beteille;Rodez;12000;22 rue Beteille Rodez 12000;Médecins, radiologie, radiodiagnostic et imagerie médicale
ARNAUD SERGE;avenue Bernard IV;Muret;31600;avenue Bernard IV Muret 31600;Médecins, radiologie, radiodiagnostic et imagerie médicale
ARNAUD LEUTENEGGER PAILLE BLAIN;rue de Préau;Rieux;31310;rue de Préau Rieux 31310;Médecins, radiologie, radiodiagnostic et imagerie médicale
ARNAUD LEUTENEGGER PAILLE BLAIN;place du Préau;Rieux;31310;place du Préau Rieux 31310;Médecins, radiologie, radiodiagnostic et imagerie médicale
BELOSSI AGNÉS;10 chemin de Cournaudis Clinique Des Pyrénées;;;10 chemin de Cournaudis Clinique Des Pyrénées  ;Médecins, radiologie, radiodiagnostic et imagerie médicale
BERNARDI MICHEL;24 boulevard Gallieni;Vic en bigorre;65500;24 boulevard Gallieni Vic en bigorre 65500;Médecins, radiologie, radiodiagnostic et imagerie médicale
BERNARDI MICHEL;24 boulevard Gallieni;Vic en bigorre;65500;24 boulevard Gallieni Vic en bigorre 65500;Médecins, radiologie, radiodiagnostic et imagerie médicale
BLAIN FRANÇOIS;avenue Bernard IV;Muret;31600;avenue Bernard IV Muret 31600;Médecins, radiologie, radiodiagnostic et imagerie médicale
BLANCHER AGNÈS;22 rue Beteille;Rodez;12000;22 rue Beteille Rodez 12000;Médecins, radiologie, radiodiagnostic et imagerie médicale
BOYER HENRI;6 rue Henri Rouzet;Saint céré;46400;6 rue Henri Rouzet Saint céré 46400;Médecins, radiologie, radiodiagnostic et imagerie médicale
BROSSIER YVONNICK;17 rue Peyrehitte;Lannemezan;65300;17 rue Peyrehitte Lannemezan 65300;Médecins, radiologie, radiodiagnostic et imagerie médicale
CABINET DE RADIOLOGIE DAVID ET HASSISSÈNE;57 avenue Sambre et Meuse;Auch;32000;57 avenue Sambre et Meuse Auch 32000;Médecins, radiologie, radiodiagnostic et imagerie médicale
CABINET DE RADIOLOGIE DU DOCTEUR HRISTEV;38 rue Monge;Fleurance;32500;38 rue Monge Fleurance 32500;Médecins, radiologie, radiodiagnostic et imagerie médicale
CABINET DE RADIOLOGIE ET D'ECHOGRAPHIE GINTRAND JACKY;13 rue de la Monnaie;Condom;32100;13 rue de la Monnaie Condom 32100;Médecins, radiologie, radiodiagnostic et imagerie médicale
CABINET DE RADIOLOGIE ET D'ECHOGRAPHIE PIQUES;38 rue Monge;Fleurance;32500;38 rue Monge Fleurance 32500;Médecins, radiologie, radiodiagnostic et imagerie médicale
CABINET DES DOCTEURS SOPPELSA ALBERGE VAUJOUR BOEL DURAND BOUTEILLER;3 allee Corbière;Castres;81100;3 allee Corbière Castres 81100;Médecins, radiologie, radiodiagnostic et imagerie médicale
CALMES ERIC;10 chemin de Cournaudis Clinique Des Pyrénées;;;10 chemin de Cournaudis Clinique Des Pyrénées  ;Médecins, radiologie, radiodiagnostic et imagerie médicale
CAUVET DAUTHERIBES;place du 4 Septembre;Decazeville;12300;place du 4 Septembre Decazeville 12300;Médecins, radiologie, radiodiagnostic et imagerie médicale
CENTRE DE RADIOLOGIE;chemin d'en Besset;Revel;31250;chemin d'en Besset Revel 31250;Médecins, radiologie, radiodiagnostic et imagerie médicale
CENTRE DE RADIOLOGIE COMPANS CAFFARELLI (FOURIO M - ROUQUETTE P - MIAILHE JM);3 boulevard du Maréchal Leclerc;Toulouse;31000;3 boulevard du Maréchal Leclerc Toulouse 31000;Médecins, radiologie, radiodiagnostic et imagerie médicale
CENTRE DE RADIOLOGIE DE BLAGNAC GRENADE;4 avenue Prés John Kennedy;Grenade;31330;4 avenue Prés John Kennedy Grenade 31330;Médecins, radiologie, radiodiagnostic et imagerie médicale
CENTRE DE RADIOLOGIE DE FONSORBES;31470;FONSORBES;31470  FONSORBES;Médecins, radiologie, radiodiagnostic et imagerie médicale;
CENTRE DE RADIOLOGIE DE LA CLINIQUE DE L'UNION;boulevard de Ratalens;Saint jean;31240;boulevard de Ratalens Saint jean 31240;Médecins, radiologie, radiodiagnostic et imagerie médicale
CENTRE DE RADIOLOGIE DE LA CLINIQUE PASTEUR;45 avenue de Lombez CEDEX 3;Toulouse;31076;45 avenue de Lombez CEDEX 3 Toulouse 31076;Médecins, radiologie, radiodiagnostic et imagerie médicale
CENTRE DE RADIOLOGIE DELTOUR;75 boulevard Deltour;Toulouse;31000;75 boulevard Deltour Toulouse 31000;Médecins, radiologie, radiodiagnostic et imagerie médicale
CENTRE DE RADIOLOGIE DES DOCTEURS ARNAUD LEUTENEGGER PAILLE BLAIN;187 avenue Jacques Douzans;Muret;31600;187 avenue Jacques Douzans Muret 31600;Médecins, radiologie, radiodiagnostic et imagerie médicale
CENTRE DE RADIOLOGIE DES DOCTEURS DIDIER ET POUJADE;71 impasse Cazeneuve;Seysses;31600;71 impasse Cazeneuve Seysses 31600;Médecins, radiologie, radiodiagnostic et imagerie médicale
CENTRE DE RADIOLOGIE DES DOCTEURS MARTIN CHAUSSON FRAUMONT;20 place de l'Europe;Cugnaux;31270;20 place de l'Europe Cugnaux 31270;
CENTRE DE RADIOLOGIE ECHOGRAPHIE DES DOCTEURS MAZEL BOUCHET SENTENAC;100 rue Frédéric Suisse;Cahors;46000;100 rue Frédéric Suisse Cahors 46000;Médecins, radiologie, radiodiagnostic et imagerie médicale
CENTRE DE RADIOLOGIE ET D'ECHOGRAPHIE;11 place de Verdun Bât 3;Vic en bigorre;65500;11 place de Verdun Bât 3 Vic en bigorre 65500;
CENTRE DE RADIOLOGIE ET D'ECHOGRAPHIE (DR ASTRUC ET CHATELIER);3 rue Bernadet;Plaisance du touch;31830;3 rue Bernadet Plaisance du touch 31830;Médecins, radiologie, radiodiagnostic et imagerie médicale
CENTRE DE RADIOLOGIE ET D'ECHOGRAPHIE DES DOCTEURS BRIAN MOUNIÉLOU DE REZOLA ET BOUNEDER;7 bis boulevard d'Encore;Saint gaudens;31800;7 bis boulevard d'Encore Saint gaudens 31800;Médecins, radiologie, radiodiagnostic et imagerie médicale
CENTRE DE RADIOLOGIE ET D'ECHOGRAPHIE DU DOCTEUR KARKOUS JEAN;2 place du Vivier;Cugnaux;31270;2 place du Vivier Cugnaux 31270;Médecins, radiologie, radiodiagnostic et imagerie médicale
CENTRE DE RADIOLOGIE ET D IMMAGERIE;4 rue Salvador Allendé;Foix;09000;4 rue Salvador Allendé Foix 09000;Médecins, radiologie, radiodiagnostic et imagerie médicale
CENTRE DE RADIOLOGIE FRANÇOIS GINESTE - ANNIE ROY - ANTOINE TEISSEIRE - JEAN-FRAN;25 avenue de Villemur;Saint alban;31140;25 avenue de Villemur Saint alban 31140;Médecins, radiologie, radiodiagnostic et imagerie médicale
CENTRE DE RADIOLOGIE LAC BLEU;30 bis rue du Lac Bleu;L'union;31240;30 bis rue du Lac Bleu L'union 31240;Médecins, radiologie, radiodiagnostic et imagerie médicale
CENTRE DE RADIOLOGIE RIVE GAUCHE;51 allees Charles de Fitte;Toulouse;31300;51 allees Charles de Fitte Toulouse 31300;Médecins, radiologie, radiodiagnostic et imagerie médicale
CENTRE DE RADIOLOGIE-ROTTER ALAIN;36 route de Belpech;Pamiers;09100;36 route de Belpech Pamiers 09100;Médecins, radiologie, radiodiagnostic et imagerie médicale
CHOBEAUX SARAH;17 rue Peyrehitte;Lannemezan;65300;17 rue Peyrehitte Lannemezan 65300;Médecins, radiologie, radiodiagnostic et imagerie médicale
CLINIQUE MÉDIPÔLE GARONNE (RADIOLOGIE);45 rue de Gironis Cs 13624 CEDEX 1;Toulouse;31036;45 rue de Gironis Cs 13624 CEDEX 1 Toulouse 31036;Médecins, radiologie, radiodiagnostic et imagerie médicale
DIDIER ROBERT JEAN;71 impasse Cazeneuve;Seysses;31600;71 impasse Cazeneuve Seysses 31600;Médecins, radiologie, radiodiagnostic et imagerie médicale
DR CAROLI MIREILLE (SDF);2768 route de Tarbes;Fonsorbes;31470;2768 route de Tarbes Fonsorbes 31470;Médecins, radiologie, radiodiagnostic et imagerie médicale
DR CHAABANE NOUREDD (SELARL);86 rue Etienne Billières;Auterive;31190;86 rue Etienne Billières Auterive 31190;Médecins, radiologie, radiodiagnostic et imagerie médicale
DR CHAABANE NOUREDDINE (SELARL);86 rue Etienne Billières;Auterive;31190;86 rue Etienne Billières Auterive 31190;Médecins, radiologie, radiodiagnostic et imagerie médicale
DR GIMOND-MORETTI ALINE (SDF);2768 route de Tarbes;Fonsorbes;31470;2768 route de Tarbes Fonsorbes 31470;Médecins, radiologie, radiodiagnostic et imagerie médicale
DUCARROUGE ERIC;14 boulevard Eugène Montel;Tournefeuille;31170;14 boulevard Eugène Montel Tournefeuille 31170;Médecins, radiologie, radiodiagnostic et imagerie médicale
DUPEYRON JEAN-PIERRE;chemin d'en Besset;Revel;31250;chemin d'en Besset Revel 31250;Médecins, radiologie, radiodiagnostic et imagerie médicale
FERRO-LECOURT PATRICIA;17 rue Peyrehitte;Lannemezan;65300;17 rue Peyrehitte Lannemezan 65300;Médecins, radiologie, radiodiagnostic et imagerie médicale
FROMONT MARIE-PAUL;37 avenue Jean-Baptiste de Lamarck;Balma;31130;37 avenue Jean-Baptiste de Lamarck Balma 31130;Médecins, radiologie, radiodiagnostic et imagerie médicale
GALY-FOURCADE DENISE;17 rue Peyrehitte;Lannemezan;65300;17 rue Peyrehitte Lannemezan 65300;Médecins, radiologie, radiodiagnostic et imagerie médicale
GARRIGUES CATHERINE;5 rue de Copenhague Le Medicis B-bourran;;12000;5 rue de Copenhague Le Medicis B-bourran  12000;Médecins, radiologie, radiodiagnostic et imagerie médicale
GAZEL PHILIPPE;75 boulevard Deltour;Toulouse;31500;75 boulevard Deltour Toulouse 31500;Médecins, radiologie, radiodiagnostic et imagerie médicale
GAZEL PHILIPPE;chemin d'en Besset;Revel;31250;chemin d'en Besset Revel 31250;Médecins, radiologie, radiodiagnostic et imagerie médicale
GIE IMEGA;allees Marie Clarac;Auch;32000;allees Marie Clarac Auch 32000;Médecins, radiologie, radiodiagnostic et imagerie médicale
GINESTE FRANÇOIS;67 avenue du Général Leclerc;Villemur sur tarn;31340;67 avenue du Général Leclerc Villemur sur tarn 31340;Médecins, radiologie, radiodiagnostic et imagerie médicale
GLEYZE PIERRE-OLIVIER;100 rue Frédéric Suisse;Cahors;46000;100 rue Frédéric Suisse Cahors 46000;Médecins, radiologie, radiodiagnostic et imagerie médicale
IMAGERIE DES 3 RIVIÈRES;40 avenue Charles de Gaulle;Montauban;82000;40 avenue Charles de Gaulle Montauban 82000;Médecins, radiologie, radiodiagnostic et imagerie médicale
IRM (GIE);domaine du Causse;Castres;81100;domaine du Causse Castres 81100;Médecins, radiologie, radiodiagnostic et imagerie médicale
LABENELLE PIERRE;55 ter rue de Metz;Auch;32000;55 ter rue de Metz Auch 32000;Médecins, radiologie, radiodiagnostic et imagerie médicale
LEBAS SYLVIE-LAURE;20 rue St-Christophe;Portet sur garonne;31120;20 rue St-Christophe Portet sur garonne 31120;Médecins, radiologie, radiodiagnostic et imagerie médicale
LEFRANC-GLEYZE SYLVIE;100 rue Frédéric Suisse;Cahors;46000;100 rue Frédéric Suisse Cahors 46000;Médecins, radiologie, radiodiagnostic et imagerie médicale
LEUTENEGGER JEAN-FRANÇOIS;avenue Bernard IV;Muret;31600;avenue Bernard IV Muret 31600;Médecins, radiologie, radiodiagnostic et imagerie médicale
MACEDO JOSEPH;100 rue Frédéric Suisse;Cahors;46000;100 rue Frédéric Suisse Cahors 46000;Médecins, radiologie, radiodiagnostic et imagerie médicale
MAGADUR HENRI;6 place Antoine Henri Becquerel;L'isle jourdain;32600;6 place Antoine Henri Becquerel L'isle jourdain 32600;Médecins, radiologie, radiodiagnostic et imagerie médicale
MEDISPORT IMAGERIE;45 rue de Gironis;Toulouse;31100;45 rue de Gironis Toulouse 31100;Médecins, radiologie, radiodiagnostic et imagerie médicale
MONSIEUR PIERRE LABENELLE;55 R rue de Metz;Auch;32000;55 R rue de Metz Auch 32000;Médecins, radiologie, radiodiagnostic et imagerie médicale
NUMER'X 32 CABINET DE RADIOLOGIE;route de Toulouse;Samatan;32130;route de Toulouse Samatan 32130;Médecins, radiologie, radiodiagnostic et imagerie médicale
PAILLÉ PIERRE;avenue Bernard IV;Muret;31600;avenue Bernard IV Muret 31600;Médecins, radiologie, radiodiagnostic et imagerie médicale
PIQUEMAL GÉRARD;10 place du Général de Gaulle;Caussade;82300;10 place du Général de Gaulle Caussade 82300;Médecins, radiologie, radiodiagnostic et imagerie médicale
POQUET JEAN-FRANÇOIS;53 bis avenue des Minimes;Toulouse;31200;53 bis avenue des Minimes Toulouse 31200;Médecins, radiologie, radiodiagnostic et imagerie médicale
SALLENAVE MARIE-FRANCE;95 route de Fronton;Aucamville;31140;95 route de Fronton Aucamville 31140;Médecins, radiologie, radiodiagnostic et imagerie médicale
SAÜT-LE NIGER FRANÇOISE;24 boulevard Gallieni;Vic en bigorre;65500;24 boulevard Gallieni Vic en bigorre 65500;Médecins, radiologie, radiodiagnostic et imagerie médicale
SCANPY;10 chemin de l'Ormeau;Tarbes;65000;10 chemin de l'Ormeau Tarbes 65000;Médecins, radiologie, radiodiagnostic et imagerie médicale
SCANPY (SCM);9 rue Maransin;Tarbes;65000;9 rue Maransin Tarbes 65000;Médecins, radiologie, radiodiagnostic et imagerie médicale
A.N.I.M (ASSOCIATION NIMOISE D'IMAGERIE MÉDICALE);3 rue Jean Bouin;Nîmes;30000;3 rue Jean Bouin Nîmes 30000;
CENTRE IMAGERIE MEDICALE (SCM);325 avenue Charles de Gaulle Bât Centre Medical;;;325 avenue Charles de Gaulle Bât Centre Medical  ;Médecins, radiologie, radiodiagnostic et imagerie médicale
SERVICE IMAGERIE MÉDICALE ARTS GRAPHIQUES PHOTO;3 allee de Catchère;Colomiers;31770;3 allee de Catchère Colomiers 31770;
DR. AUDOUY BERNARD (RADIO DIAGNOSTIC ET IMAGERIE MÉDICALE);20 boulevard Maréchal Foch CEDEX .;Castres;81108;20 boulevard Maréchal Foch CEDEX . Castres 81108;
CENTRE DE RADIOLOGIE ET D'IMAGERIE MÉDICALE DU PARC;33 rue des Buchers;Toulouse;31400;33 rue des Buchers Toulouse 31400;Médecins, radiologie, radiodiagnostic et imagerie médicale
IMAGERIE MÉDICALE BLAGNEC-GRENADE;2 avenue de Cornebarrieu;Blagnac;31700;2 avenue de Cornebarrieu Blagnac 31700;Médecins, radiologie, radiodiagnostic et imagerie médicale
IMAGERIE MÉDICALE DU RUTHÉNOIS;22 rue Beteille;Rodez;12000;22 rue Beteille Rodez 12000;Médecins, radiologie, radiodiagnostic et imagerie médicale
IMAGERIE MEDICALES LOURDES;15 boulevard Roger Cazenave;Lourdes;65100;15 boulevard Roger Cazenave Lourdes 65100;Médecins, radiologie, radiodiagnostic et imagerie médicale
ANIM ASS NIMOISE D'IMAGERIE MÉDICALE;1 bis avenue Jean Jaurès;Nîmes;30900;1 bis avenue Jean Jaurès Nîmes 30900;Médecins, radiologie, radiodiagnostic et imagerie médicale
ANIM ASS NIMOISE D'IMAGERIE MEDICALE;1 avenue Maxime Pascal;Uzès;30700;1 avenue Maxime Pascal Uzès 30700;Médecins, radiologie, radiodiagnostic et imagerie médicale
AZUR IMAGERIE MEDICALE;place du Forum;La grande motte;34280;place du Forum La grande motte 34280;Médecins, radiologie, radiodiagnostic et imagerie médicale
CABINET DE RADIOLOGIE ET D'IMAGERIE MÉDICALE;11 avenue de la Galine;Castelnau le lez;34170;11 avenue de la Galine Castelnau le lez 34170;Médecins, radiologie, radiodiagnostic et imagerie médicale
CENTRE D'IMAGERIE MÉDICALE;2 rue Jean Galia Clinique St Pierre;Perpignan;66000;2 rue Jean Galia Clinique St Pierre Perpignan 66000;Médecins, radiologie, radiodiagnostic et imagerie médicale
CENTRE D'IMAGERIE MÉDICALE;avenue d Argeles Sur Mer Clinique Notre Dame;;66000;avenue d Argeles Sur Mer Clinique Notre Dame  66000;Médecins, radiologie, radiodiagnostic et imagerie médicale
CENTRE D'IMAGERIE MÉDICALE;8 rue Sant Pluget;Céret;66400;8 rue Sant Pluget Céret 66400;Médecins, radiologie, radiodiagnostic et imagerie médicale
CENTRE D'IMAGERIE MÉDICALE (MERIGNY KRISTIAN);16 avenue des Flamants Roses;Argelès sur mer;66700;16 avenue des Flamants Roses Argelès sur mer 66700;Médecins, radiologie, radiodiagnostic et imagerie médicale
CENTRE D'IMAGERIE MÉDICALE DE SAINT-GILLES (C.I.M.S.G);route de Nîmes;Saint gilles;30800;route de Nîmes Saint gilles 30800;Médecins, radiologie, radiodiagnostic et imagerie médicale
CENTRE D'IMAGERIE MÉDICALE DES PAYS D'AGDE;77 route de Rochelongue;Agde;34300;77 route de Rochelongue Agde 34300;Médecins, radiologie, radiodiagnostic et imagerie médicale
CENTRE D'IMAGERIE MÉDICALE DU SEIN DU RABELAIS;5 avenue du Dr Jean-Marie Fabre;Béziers;34500;5 avenue du Dr Jean-Marie Fabre Béziers 34500;Médecins, radiologie, radiodiagnostic et imagerie médicale
CENTRE D'IMAGERIE MÉDICALE LA TOUR;2 avenue du Gén Charles de Gaulle;Pont saint esprit;30130;2 avenue du Gén Charles de Gaulle Pont saint esprit 30130;Médecins, radiologie, radiodiagnostic et imagerie médicale
CENTRE DE RADIOLOGIE IMAGERIE MÉDICALE (NOTRE DAME D'ESPÉRANCE);avenue Argelès;Perpignan;66100;avenue Argelès Perpignan 66100;Médecins, radiologie, radiodiagnostic et imagerie médicale
CENTRE IMAGERIE MÉDICALE DE LA CALMETTE (CALLAS MOHSEN);avenue Charles de Gaulle 24 Zone Commerciale;;;avenue Charles de Gaulle 24 Zone Commerciale  ;Médecins, radiologie, radiodiagnostic et imagerie médicale
CENTRE IMAGERIE MÉDICALE ECHO D'UZES;1 avenue Maxime Pascal;Uzès;30700;1 avenue Maxime Pascal Uzès 30700;Médecins, radiologie, radiodiagnostic et imagerie médicale
IMAGERIE MÉDICALE DE PÉZENAS (DRS GINESTE ET BRETON);8 avenue Paul Vidal de la Blache;Pézenas;34120;8 avenue Paul Vidal de la Blache Pézenas 34120;Médecins, radiologie, radiodiagnostic et imagerie médicale
IMAGERIE MÉDICALE MONTPELLIER-MAUGUIO (SCM);65 route de Laverune;Montpellier;34070;65 route de Laverune Montpellier 34070;Médecins, radiologie, radiodiagnostic et imagerie médicale
IMAGERIE MEDICALE PYRENEES MEDITERRANEE CONFLENT;21 avenue du Festival;Prades;66500;21 avenue du Festival Prades 66500;Médecins, radiologie, radiodiagnostic et imagerie médicale
SELAS THAU IMAGERIE MÉDICALE;1 impasse St-Louis;Saint jean de védas;34430;1 impasse St-Louis Saint jean de védas 34430;Médecins, radiologie, radiodiagnostic et imagerie médicale
SELAS THAU IMAGERIE MEDICALE;avenue du Maréchal Juin;Frontignan;34110;avenue du Maréchal Juin Frontignan 34110;Médecins, radiologie, radiodiagnostic et imagerie médicale
SELAS THAU IMAGERIE MEDICALE;avenue du Maréchal Juin;Sète;34200;avenue du Maréchal Juin Sète 34200;Médecins, radiologie, radiodiagnostic et imagerie médicale
ALBI IMAGERIE MÉDICALE;3 avenue des Marranes;Le sequestre;81990;3 avenue des Marranes Le sequestre 81990;Médecins, radiologie, radiodiagnostic et imagerie médicale
CENTRE D'IMAGERIE MÉDICALE;17 rue Peyrehitte;Lannemezan;65300;17 rue Peyrehitte Lannemezan 65300;Médecins, radiologie, radiodiagnostic et imagerie médicale
CENTRE D'IMAGERIE MÉDICALE JEAN MOULIN;653 avenue Jean Moulin;Montauban;82000;653 avenue Jean Moulin Montauban 82000;Médecins, radiologie, radiodiagnostic et imagerie médicale
