nofinesset;rs;libdepartement;ligneacheminement;libcategetab;coordonnees
830000345.0;chits ch sainte musse;var;toulon;centre hospitalier (c.h.);5.975419364175924,43.12528305634086
830005278.0;ces la colombe cpam 83;var;toulon;centre d'examens de santé;5.928008298647185,43.124230856858375
830024246.0;cds medical avodd (nephrologique);var;toulon;centre de santé;5.932462852140971,43.13220668462828
830024576.0;cds dentaire dentego toulon;var;toulon;centre de santé;5.935230673893797,43.12446728254111
830025839.0;cds medico-dentaire clinadent toulon;var;toulon;centre de santé;5.921797611427999,43.128596414916736
830100434.0;hopital prive toulon hyeres saint jean;var;toulon;etablissement de soins pluridisciplinaire;5.947231905017547,43.12369235362911
830100459.0;clinique saint michel;var;toulon;etablissement de soins pluridisciplinaire;5.953421111906093,43.12342657549454
830100475.0;hopital prive toulon hyeres saint roch;var;toulon;etablissement de soins pluridisciplinaire;5.921919462218007,43.12869751778792
830100624.0;ctre med et readap des mts toulonnais;var;toulon;etablissement de santé privé autorisé en ssr;5.985226693362951,43.13292534833098
830208070.0;cds dentaire vyv 3 sud-est;var;toulon;centre de santé;5.92475858352361,43.12700668910326
830214466.0;cds dentaire;var;toulon;centre de santé;5.939354271235209,43.12308668385291
