Nom du professionnel;Coordonnées
LAURA FLANDRIN;43.112924,5.949873
YOURI BENOIT DEL GRECO;43.126831,5.941121
ISABELLE LECLAIR;43.127153,5.921514
PIERRE SINDRES;43.137055,5.911492
SOPHIE CLIMI;43.129391,5.966634
MOHAMMED BOUFERROUM;43.130363,5.882844
MICHEL PELLEGRIN;43.117701,5.942039
CORALIE DELTOUR BROCHART;43.138287,5.904965
COLETTE LEONI;43.131225,5.932225
VINCENT NAVARRE;43.117292,5.945408
JEAN MARC RAYBAUD;43.141429,5.898325
FREDERIQUE ACHACHE;43.12874,5.905927
FREDERIC LEONTI;43.137564,5.902794
JACQUES KERLEROUX;43.125051,5.928571
MARIE ANGE MEUCCI;43.123218,5.94893
SYLVIE KERLEROUX;43.125108,5.928473
NATHALIE BADAMO;43.12267,5.936322
CHRISTIAN ROGUES;43.115886,5.960871
DIDIER DEPOIZIER;43.143141,5.901584
JEAN MICHEL CLEREL;43.119103,5.934257
DOMINIQUE PAYET;43.10561,5.930439
PHILIPPE TEBOUL;43.137116,5.905465
RENAUD ROSTREN;43.110857,5.938844
ELISABETH CODDE MONGES;43.123087,5.947081
MAI JUNG;
JULIE EMONT;43.129391,5.966634
ALAIN STUBLIER;43.145622,5.912736
PASCAL THOMAS;43.112924,5.949873
JEAN MOLLEVILLE;43.132993,5.924543
MICHAEL DEMOLIN;43.115529,5.971498
RENE MONGES;43.124332,5.929429
THOMAS BRILLOUET;43.131418,5.958624
DOROTHEE CHARBONNIER;43.124332,5.929429
VALERIE MANDIER MICHAUT;43.12661,5.924326
MARINE BRACQUART;43.110589,5.938209
GUILLAUME CABARROU;43.114704,5.946112
PATRICK DARODES DE TAILLY;43.129089,5.897406
PIERRE MANAUT;43.125235,5.933675
EMILIE DONTENVILLE;43.129391,5.966634
BENJAMIN BRIAT;43.126373,5.960901
MARIE AH VOUN;43.128641,5.903176
CHARLOTTE LECERF;43.124087,5.933414
ELODIE TEDGUY;43.123443,5.937551
HERVE LE GLOANNEC;43.124281,5.932943
GENEVIEVE LACAS;43.11544,5.980494
SANDRINE TORMEN;43.113894,5.937445
PATRICIA MOUNIER;43.113894,5.937445
DANIEL GAUDIBERT;43.130469,5.9076
CHRISTIAN VAN CAEMELBECKE;43.131997,5.88223
CAROLINE LOUIS;43.11252,5.968551
CHRISTINE LAGIER PENHOAT;43.1224,5.970912
THIERRY DELANDRE;43.13355,5.920849
XAVIER AUBRUN;43.108676,5.944535
SERGE CANO;43.12911,5.918294
STEPHANIE ISRAEL;43.426241,6.212163
JEAN CLAUDE ROY;43.123159,5.955218
KOUASSI NICOLAS KONAN;48.922636,6.062877
EMMANUELLE ARNAUD;43.121173,5.934887
EMMANUELLE FAUCON;43.109739,5.936779
ERWAN GUIVARC H;43.114207,5.96035
LAURENCE PALLIER;43.132214,5.883088
MARCEL ANDRE CAMPISTRON;43.107511,5.933319
MICHAEL JIRYESS;43.117292,5.945408
CONSTANTIN SABAU;43.145622,5.912736
JEAN PIERRE CARLINI;43.129391,5.966634
PASCAL ROUSSANNE;43.125214,5.93502
FABRICE MANINI;43.143141,5.901584
GERARD DUCROCQ;43.13079,5.911205
JEAN LUC LE GALL;43.137564,5.902794
BERTRAND LAVERSIN;43.144881,5.912412
PIERRE HAZIZA;43.109239,5.940623
CAROLINE DE ROUX;43.112924,5.949873
FLORENCE NAZARIAN;43.118301,5.939874
LORENA ZARA;43.13625,5.899242
EMMANUEL DHO;43.130363,5.882844
CHRISTINE JUGLARD;43.121739,5.934892
NICOLAS SAULI;43.129391,5.966634
CLAIRE ETHEVENIN MORAND;43.124841,5.932859
MARIE HELENE TEISSEIRE;43.125108,5.928473
CLOTILDE LEFEBVRE;43.131511,5.928369
WILLIAM ARTZ;43.127153,5.921514
BRIGITTE CHOURAQUI;43.124716,5.928519
STEPHANE VANIER;43.12661,5.924326
PASCALE ANDREANI;43.109689,5.936364
BENOIT GABRIE;43.148537,5.90365
RICHARD BOVET;43.143141,5.901584
CHRISTINE BARTHOLOMEI;43.140841,5.888089
ETIENNE ALLIOT;43.143141,5.901584
CHRISTOPHE DIENER;43.131225,5.932225
VERONIQUE BESSON;43.124567,5.931538
PASCALE SUDAN;43.115886,5.960871
SANDRINE DURANSEAUD;
LEA KOJCHEN;43.123443,5.937551
NOELLE GENDRON DAGORN;43.123319,5.933438
PIERRE MICHEL COHADE;43.117166,5.968646
PIERRE CHRISTOPHE DAVID;43.125918,5.929815
ALAIN BARRIOL;43.119806,5.938895
MARC BARLETTA;43.127674,5.916885
CAROL BAYARD;43.122796,5.932595
ELODIE OLMI;43.126058,5.96116
DOMINIQUE RAUCOULES;43.113894,5.937445
MESSAOUD DABA;43.123159,5.955218
FRANCIS LUCCISANO;43.114763,5.94666
YVES TASSY;43.126909,5.977099
MICHEL CHON SEN;
PIERRE GUELFUCCI;43.106607,5.932334
MARC LINCKER;43.112654,5.942159
ANNICK QUEFFEULOU;43.135775,5.897885
JEAN ROBERT VORGEAT;43.1224,5.970912
PHILIPPE ARROYO;43.127153,5.921514
VALERIE BATALLER;43.130445,5.937053
BERNARD AIRAUDI;43.129352,5.921874
CHRISTOPHE DE SAINT VAAST;43.107511,5.933319
PATRICE AICARDO;43.139416,5.889692
HALIM DALLA GHARBI;43.121095,5.934477
HENRI ABEILLE;
MARC LENOIR;43.145622,5.912736
MARINE DESHORS;43.131511,5.928369
CLAUDE SERAFINI;43.112024,5.940215
ALAIN DHO;43.131418,5.958624
ALAIN MIRABELLES;43.139653,5.91592
ALAIN MACAGNO;43.122516,5.94469
PHILIPPE UNIA;43.11544,5.980494
CLAUDIE TERRUEL;43.123319,5.933438
JEROME SPORTOUCH;43.130848,5.920239
PASCALE LE GLAUNEC;43.121739,5.934892
ROLAND BAILLET;43.145622,5.912736
FABIENNE DANA;43.143936,5.902824
FLEUR LE BERRE;43.126876,5.941121
FRANCOIS ETIENNE;43.109689,5.936364
AURELIEN MESENBURG;43.139416,5.889692
PAUL NOIROT;43.138287,5.904965
MARIE ANNE LEONETTI;43.127179,5.921366
MICHEL COURGEON;43.131144,5.930961
ROBERT GARNIER;43.128349,5.912739
BERNARD GILAVERT;43.124432,5.935963
MARC RIPOLL;43.128349,5.912739
SYLVAIN CHAPON;43.127153,5.921514
HAKIMA EL MERNISSI;43.132293,5.979982
FRANCOIS CERVANTES;
FRANCK ROUSSELLE;43.158867,5.91776
SYLVIE DIBART;43.426241,6.212163
PIERRE OTERO;43.128349,5.912739
MICHEL MILLIAT;43.128349,5.912739
JEAN CHRISTOPHE JOUVAL;43.128527,5.921919
ARNAUD MAUDRIC;43.132687,5.926226
SERGE DELAPORTE;43.132993,5.924543
VERONIQUE DELCOMBEL;43.126058,5.96116
JACQUES POURCIN;43.128349,5.912739
